N	M	V	S	T
5	0.08143681614516	0.01824103828259993	0.2884815045802435	0.6659237031102423
10	0.035402800068550275	0.0839816555646955	0.21591975098053076	0.6172467396043717
20	0.10027400006947573	0.19138098015006544	0.12005013361756323	0.13309332759195946
50	0.03880316007212969	0.02743382964763974	0.04185663216250678	0.29675877024995634
100	0.007730379928834741	0.07402169763573885	0.106468702171819	0.1553510120821553
200	0.012846759927197127	0.040360888544477946	0.06483048035787235	0.07371004578200857
500	0.01140955607237993	0.024838156459999983	0.025355536745043594	0.0625437733172225
1000	0.006526465927614482	0.016972571495847966	0.0008072579450497927	0.024805629315980404
2000	0.0036793500726635107	0.020000558655805634	0.0005050086725979415	0.00933354080547577
5000	0.0026311735272523946	0.0040332611203102164	0.01014939347566891	0.01834731618343488
10000	0.0017818593269650594	0.005880532772094771	0.0015441643723026685	0.005032650725319776
20000	0.0013861438272200761	0.0027165100783739238	0.0011209755909330336	0.008371876495989916
50000	0.00027745928728632854	0.0010544646055106188	0.0014989893068341135	0.01647225429846877
100000	0.0018724973672382475	0.0010280205571300272	0.0005137580051986518	0.006185354252666642
200000	0.0018559169127565836	0.0008587361991787557	0.00232164354	0.0006301066152354373
500000	0.0005095518792618242	0.0011033796417931896	0.001001811207165153	0.0011569032305813742
1000000	5.372540074058635e-05	0.0005247930712575233	0.0005621916	0.0003956074993007874