t	mx	my	vx	vy	sx	sy	tx	ty
0.0	0.003	0.0	0.101	0.0	0.034	0	2.953	0
0.2	0.002	-0.005	0.067	0.342	0.034	-0.034	2.953	2.953
0.4	0.001	-0.008	0.01	0.898	0.034	-0.034	2.953	2.953
0.6	-0.001	-0.008	0.009	0.903	-0.034	-0.034	2.953	2.953
0.8	-0.002	-0.005	0.066	0.351	-0.034	-0.034	2.953	2.953
1.0	-0.003	-0.0	0.101	0.0	-0.034	-0.034	2.953	2.953
1.2	-0.002	0.005	0.067	0.333	-0.034	0.034	2.953	2.953
1.4000000000000001	-0.001	0.007	0.01	0.892	-0.034	0.034	2.953	2.953
1.6	0.001	0.008	0.009	0.909	0.034	0.034	2.953	2.953
1.8	0.002	0.005	0.065	0.36	0.034	0.034	2.953	2.953
2.0	0.003	0.0	0.101	0.0	0.034	0.034	2.953	2.953
2.2	0.002	-0.005	0.068	0.324	0.034	-0.034	2.953	2.953
2.4	0.001	-0.007	0.011	0.886	0.034	-0.034	2.953	2.953
2.6	-0.001	-0.008	0.008	0.914	-0.034	-0.034	2.953	2.953
2.8000000000000003	-0.002	-0.005	0.064	0.369	-0.034	-0.034	2.953	2.953
3.0	-0.003	-0.0	0.101	0.001	-0.034	-0.034	2.953	2.953
3.2	-0.002	0.004	0.069	0.315	-0.034	0.034	2.953	2.953
3.4	-0.001	0.007	0.012	0.88	-0.034	0.034	2.953	2.953
3.6	0.001	0.008	0.008	0.919	0.034	0.034	2.953	2.953
3.8000000000000003	0.002	0.005	0.063	0.378	0.034	0.034	2.953	2.953
4.0	0.003	0.0	0.101	0.001	0.034	0.034	2.953	2.953
4.2	0.002	-0.004	0.07	0.307	0.034	-0.034	2.953	2.953
4.4	0.001	-0.007	0.012	0.874	0.034	-0.034	2.953	2.953
4.6000000000000005	-0.001	-0.008	0.007	0.924	-0.034	-0.034	2.953	2.953
4.8	-0.002	-0.005	0.062	0.388	-0.034	-0.034	2.953	2.953
5.0	-0.003	-0.0	0.101	0.002	-0.034	-0.034	2.953	2.953
5.2	-0.002	0.004	0.071	0.298	-0.034	0.034	2.953	2.953
5.4	-0.001	0.007	0.013	0.868	-0.034	0.034	2.953	2.953
5.6000000000000005	0.001	0.008	0.007	0.929	0.034	0.034	2.953	2.953
5.8	0.002	0.005	0.061	0.397	0.034	0.034	2.953	2.953
6.0	0.003	0.0	0.101	0.003	0.034	0.034	2.953	2.953
6.2	0.002	-0.004	0.072	0.289	0.034	-0.034	2.953	2.953
6.4	0.001	-0.007	0.014	0.862	0.034	-0.034	2.953	2.953
6.6000000000000005	-0.001	-0.008	0.006	0.934	-0.034	-0.034	2.953	2.953
6.8	-0.002	-0.005	0.06	0.406	-0.034	-0.034	2.953	2.953
7.0	-0.003	-0.001	0.101	0.004	-0.034	-0.034	2.953	2.953
7.2	-0.002	0.004	0.073	0.281	-0.034	0.034	2.953	2.953
7.4	-0.001	0.007	0.014	0.855	-0.034	0.034	2.953	2.953
7.6000000000000005	0.001	0.008	0.006	0.938	0.034	0.034	2.953	2.953
7.8	0.002	0.005	0.059	0.415	0.034	0.034	2.953	2.953
8.0	0.003	0.001	0.101	0.006	0.034	0.034	2.953	2.953
8.2	0.002	-0.004	0.074	0.272	0.034	-0.034	2.953	2.953
8.4	0.001	-0.007	0.015	0.849	0.034	-0.034	2.953	2.953
8.6	-0.001	-0.008	0.005	0.942	-0.034	-0.034	2.953	2.953
8.8	-0.002	-0.005	0.058	0.425	-0.034	-0.034	2.953	2.953
9.0	-0.003	-0.001	0.101	0.007	-0.034	-0.034	2.953	2.953
9.200000000000001	-0.002	0.004	0.075	0.264	-0.034	0.034	2.953	2.953
9.4	-0.001	0.007	0.016	0.842	-0.034	0.034	2.953	2.953
9.6	0.001	0.008	0.005	0.947	0.034	0.034	2.953	2.953
9.8	0.002	0.005	0.057	0.434	0.034	0.034	2.953	2.953
10.0	0.003	0.001	0.101	0.009	0.034	0.034	2.953	2.953
10.200000000000001	0.002	-0.004	0.075	0.256	0.034	-0.034	2.953	2.953
10.4	0.001	-0.007	0.016	0.835	0.034	-0.034	2.953	2.953
10.6	-0.001	-0.008	0.005	0.951	-0.034	-0.034	2.953	2.953
10.8	-0.002	-0.005	0.056	0.443	-0.034	-0.034	2.953	2.953
11.0	-0.003	-0.001	0.1	0.011	-0.034	-0.034	2.953	2.953
11.200000000000001	-0.002	0.004	0.076	0.247	-0.034	0.034	2.953	2.953
11.4	-0.001	0.007	0.017	0.828	-0.034	0.034	2.953	2.953
11.6	0.001	0.008	0.004	0.954	0.034	0.034	2.953	2.953
11.8	0.002	0.005	0.055	0.453	0.034	0.034	2.953	2.953
12.0	0.003	0.001	0.1	0.013	0.034	0.034	2.953	2.953
12.200000000000001	0.002	-0.004	0.077	0.239	0.034	-0.034	2.953	2.953
12.4	0.001	-0.007	0.018	0.821	0.034	-0.034	2.953	2.953
12.6	-0.0	-0.008	0.004	0.958	-0.034	-0.034	2.953	2.953
12.8	-0.002	-0.005	0.054	0.462	-0.034	-0.034	2.953	2.953
13.0	-0.003	-0.001	0.1	0.015	-0.034	-0.034	2.953	2.953
13.200000000000001	-0.002	0.004	0.078	0.231	-0.034	0.034	2.953	2.953
13.4	-0.001	0.007	0.019	0.814	-0.034	0.034	2.953	2.953
13.6	0.0	0.008	0.003	0.962	0.034	0.034	2.953	2.953
13.8	0.002	0.005	0.053	0.472	0.034	0.034	2.953	2.953
14.0	0.003	0.001	0.1	0.018	0.034	0.034	2.953	2.953
14.200000000000001	0.002	-0.004	0.079	0.223	0.034	-0.034	2.953	2.953
14.4	0.001	-0.007	0.019	0.806	0.034	-0.034	2.953	2.953
14.6	-0.0	-0.008	0.003	0.965	-0.034	-0.034	2.953	2.953
14.8	-0.002	-0.005	0.052	0.481	-0.034	-0.034	2.953	2.953
15.0	-0.002	-0.001	0.099	0.02	-0.034	-0.034	2.953	2.953
15.200000000000001	-0.002	0.004	0.079	0.215	-0.034	0.034	2.953	2.953
15.4	-0.001	0.007	0.02	0.799	-0.034	0.034	2.953	2.953
15.6	0.0	0.008	0.003	0.968	0.034	0.034	2.953	2.953
15.8	0.002	0.006	0.051	0.491	0.034	0.034	2.953	2.953
16.0	0.002	0.001	0.099	0.023	0.034	0.034	2.953	2.953
16.2	0.002	-0.004	0.08	0.208	0.034	-0.034	2.953	2.953
16.4	0.001	-0.007	0.021	0.791	0.034	-0.034	2.953	2.953
16.6	-0.0	-0.008	0.002	0.971	-0.034	-0.034	2.953	2.953
16.8	-0.002	-0.006	0.05	0.5	-0.034	-0.034	2.953	2.953
17.0	-0.002	-0.001	0.099	0.026	-0.034	-0.034	2.953	2.953
17.2	-0.002	0.004	0.081	0.2	-0.034	0.034	2.953	2.953
17.400000000000002	-0.001	0.007	0.022	0.783	-0.034	0.034	2.953	2.953
17.6	0.0	0.008	0.002	0.974	0.034	0.034	2.953	2.953
17.8	0.002	0.006	0.05	0.51	0.034	0.034	2.953	2.953
18.0	0.002	0.001	0.099	0.029	0.034	0.034	2.953	2.953
18.2	0.002	-0.003	0.082	0.193	0.034	-0.034	2.953	2.953
18.400000000000002	0.001	-0.007	0.022	0.776	0.034	-0.034	2.953	2.953
18.6	-0.0	-0.008	0.002	0.976	-0.034	-0.034	2.953	2.953
18.8	-0.002	-0.006	0.049	0.519	-0.034	-0.034	2.953	2.953
19.0	-0.002	-0.001	0.098	0.032	-0.034	-0.034	2.953	2.953
19.2	-0.002	0.003	0.083	0.185	-0.034	0.034	2.953	2.953
19.400000000000002	-0.001	0.007	0.023	0.768	-0.034	0.034	2.953	2.953
19.6	0.0	0.008	0.002	0.979	0.034	0.034	2.953	2.953
19.8	0.002	0.006	0.048	0.528	0.034	0.034	2.953	2.953
20.0	0.002	0.001	0.098	0.036	0.034	0.034	2.953	2.953
20.2	0.002	-0.003	0.083	0.178	0.034	-0.034	2.953	2.953
20.400000000000002	0.001	-0.007	0.024	0.76	0.034	-0.034	2.953	2.953
20.6	-0.0	-0.008	0.001	0.981	-0.034	-0.034	2.953	2.953
20.8	-0.002	-0.006	0.047	0.538	-0.034	-0.034	2.953	2.953
21.0	-0.002	-0.002	0.097	0.039	-0.034	-0.034	2.953	2.953
21.2	-0.002	0.003	0.084	0.171	-0.034	0.034	2.953	2.953
21.400000000000002	-0.001	0.007	0.025	0.752	-0.034	0.034	2.953	2.953
21.6	0.0	0.008	0.001	0.983	0.034	0.034	2.953	2.953
21.8	0.002	0.006	0.046	0.547	0.034	0.034	2.953	2.953
22.0	0.002	0.002	0.097	0.043	0.034	0.034	2.953	2.953
22.2	0.002	-0.003	0.085	0.164	0.034	-0.034	2.953	2.953
22.400000000000002	0.001	-0.007	0.026	0.743	0.034	-0.034	2.953	2.953
22.6	-0.0	-0.008	0.001	0.985	-0.034	-0.034	2.953	2.953
22.8	-0.002	-0.006	0.045	0.557	-0.034	-0.034	2.953	2.953
23.0	-0.002	-0.002	0.097	0.047	-0.034	-0.034	2.953	2.953
23.2	-0.002	0.003	0.085	0.157	-0.034	0.034	2.953	2.953
23.400000000000002	-0.001	0.007	0.027	0.735	-0.034	0.034	2.953	2.953
23.6	0.0	0.008	0.001	0.987	0.034	0.034	2.953	2.953
23.8	0.002	0.006	0.044	0.566	0.034	0.034	2.953	2.953
24.0	0.002	0.002	0.096	0.051	0.034	0.034	2.953	2.953
24.2	0.002	-0.003	0.086	0.15	0.034	-0.034	2.953	2.953
24.400000000000002	0.001	-0.007	0.027	0.727	0.034	-0.034	2.953	2.953
24.6	-0.0	-0.008	0.001	0.989	-0.034	-0.034	2.953	2.953
24.8	-0.002	-0.006	0.043	0.575	-0.034	-0.034	2.953	2.953
25.0	-0.002	-0.002	0.096	0.055	-0.034	-0.034	2.953	2.953
25.2	-0.002	0.003	0.087	0.143	-0.034	0.034	2.953	2.953
25.400000000000002	-0.001	0.007	0.028	0.718	-0.034	0.034	2.953	2.953
25.6	0.0	0.008	0.001	0.99	0.034	0.034	2.953	2.953
25.8	0.002	0.006	0.042	0.585	0.034	0.034	2.953	2.953
26.0	0.002	0.002	0.095	0.059	0.034	0.034	2.953	2.953
26.2	0.002	-0.003	0.088	0.137	0.034	-0.034	2.953	2.953
26.400000000000002	0.001	-0.007	0.029	0.71	0.034	-0.034	2.953	2.953
26.6	-0.0	-0.008	0.0	0.991	-0.034	-0.034	2.953	2.953
26.8	-0.002	-0.006	0.041	0.594	-0.034	-0.034	2.953	2.953
27.0	-0.002	-0.002	0.095	0.064	-0.034	-0.034	2.953	2.953
27.2	-0.002	0.003	0.088	0.13	-0.034	0.034	2.953	2.953
27.400000000000002	-0.001	0.007	0.03	0.701	-0.034	0.034	2.953	2.953
27.6	0.0	0.008	0.0	0.992	0.034	0.034	2.953	2.953
27.8	0.002	0.006	0.04	0.603	0.034	0.034	2.953	2.953
28.0	0.002	0.002	0.094	0.069	0.034	0.034	2.953	2.953
28.2	0.002	-0.003	0.089	0.124	0.034	-0.034	2.953	2.953
28.400000000000002	0.001	-0.007	0.031	0.693	0.034	-0.034	2.953	2.953
28.6	-0.0	-0.008	0.0	0.993	-0.034	-0.034	2.953	2.953
28.8	-0.002	-0.006	0.039	0.613	-0.034	-0.034	2.953	2.953
29.0	-0.002	-0.002	0.094	0.074	-0.034	-0.034	2.953	2.953
29.2	-0.002	0.003	0.089	0.118	-0.034	0.034	2.953	2.953
29.400000000000002	-0.001	0.007	0.032	0.684	-0.034	0.034	2.953	2.953
29.6	0.0	0.008	0.0	0.994	0.034	0.034	2.953	2.953
29.8	0.002	0.006	0.038	0.622	0.034	0.034	2.953	2.953
30.0	0.002	0.002	0.093	0.079	0.034	0.034	2.953	2.953
30.2	0.002	-0.003	0.09	0.112	0.034	-0.034	2.953	2.953
30.400000000000002	0.001	-0.007	0.033	0.675	0.034	-0.034	2.953	2.953
30.6	-0.0	-0.008	0.0	0.995	-0.034	-0.034	2.953	2.953
30.8	-0.002	-0.006	0.037	0.631	-0.034	-0.034	2.953	2.953
31.0	-0.002	-0.002	0.093	0.084	-0.034	-0.034	2.953	2.953
31.2	-0.002	0.003	0.091	0.106	-0.034	0.034	2.953	2.953
31.400000000000002	-0.001	0.006	0.034	0.666	-0.034	0.034	2.953	2.953
31.6	0.0	0.008	0.0	0.995	0.034	0.034	2.953	2.953
31.8	0.002	0.006	0.036	0.64	0.034	0.034	2.953	2.953
32.0	0.002	0.002	0.092	0.089	0.034	0.034	2.953	2.953
32.2	0.002	-0.003	0.091	0.1	0.034	-0.034	2.953	2.953
32.4	0.001	-0.006	0.034	0.657	0.034	-0.034	2.953	2.953
32.6	-0.0	-0.008	0.0	0.995	-0.034	-0.034	2.953	2.953
32.8	-0.001	-0.006	0.035	0.649	-0.034	-0.034	2.953	2.953
33.0	-0.002	-0.002	0.092	0.095	-0.034	-0.034	2.953	2.953
33.2	-0.002	0.002	0.092	0.094	-0.034	0.034	2.953	2.953
33.4	-0.001	0.006	0.035	0.648	-0.034	0.034	2.953	2.953
33.6	-0.0	0.008	0.0	0.995	-0.034	0.034	2.953	2.953
33.8	0.001	0.006	0.034	0.658	0.034	0.034	2.953	2.953
34.0	0.002	0.003	0.091	0.1	0.034	0.034	2.953	2.953
34.2	0.002	-0.002	0.092	0.089	0.034	-0.034	2.953	2.953
34.4	0.002	-0.006	0.036	0.639	0.034	-0.034	2.953	2.953
34.6	0.0	-0.008	0.0	0.995	0.034	-0.034	2.953	2.953
34.800000000000004	-0.001	-0.006	0.033	0.667	-0.034	-0.034	2.953	2.953
35.0	-0.002	-0.003	0.091	0.106	-0.034	-0.034	2.953	2.953
35.2	-0.002	0.002	0.093	0.084	-0.034	0.034	2.953	2.953
35.4	-0.002	0.006	0.037	0.63	-0.034	0.034	2.953	2.953
35.6	-0.0	0.008	0.0	0.995	-0.034	0.034	2.953	2.953
35.800000000000004	0.001	0.007	0.033	0.676	0.034	0.034	2.953	2.953
36.0	0.002	0.003	0.09	0.112	0.034	0.034	2.953	2.953
36.2	0.002	-0.002	0.093	0.078	0.034	-0.034	2.953	2.953
36.4	0.002	-0.006	0.038	0.621	0.034	-0.034	2.953	2.953
36.6	0.0	-0.008	0.0	0.994	0.034	-0.034	2.953	2.953
36.800000000000004	-0.001	-0.007	0.032	0.685	-0.034	-0.034	2.953	2.953
37.0	-0.002	-0.003	0.089	0.118	-0.034	-0.034	2.953	2.953
37.2	-0.002	0.002	0.094	0.073	-0.034	0.034	2.953	2.953
37.4	-0.002	0.006	0.039	0.612	-0.034	0.034	2.953	2.953
37.6	-0.0	0.008	0.0	0.993	-0.034	0.034	2.953	2.953
37.800000000000004	0.001	0.007	0.031	0.693	0.034	0.034	2.953	2.953
38.0	0.002	0.003	0.089	0.124	0.034	0.034	2.953	2.953
38.2	0.002	-0.002	0.094	0.068	0.034	-0.034	2.953	2.953
38.4	0.002	-0.006	0.04	0.603	0.034	-0.034	2.953	2.953
38.6	0.0	-0.008	0.0	0.992	0.034	-0.034	2.953	2.953
38.800000000000004	-0.001	-0.007	0.03	0.702	-0.034	-0.034	2.953	2.953
39.0	-0.002	-0.003	0.088	0.13	-0.034	-0.034	2.953	2.953
39.2	-0.002	0.002	0.095	0.064	-0.034	0.034	2.953	2.953
39.4	-0.002	0.006	0.041	0.593	-0.034	0.034	2.953	2.953
39.6	-0.0	0.008	0.0	0.991	-0.034	0.034	2.953	2.953
39.800000000000004	0.001	0.007	0.029	0.71	0.034	0.034	2.953	2.953
40.0	0.002	0.003	0.087	0.137	0.034	0.034	2.953	2.953
40.2	0.002	-0.002	0.095	0.059	0.034	-0.034	2.953	2.953
40.4	0.002	-0.006	0.042	0.584	0.034	-0.034	2.953	2.953
40.6	0.0	-0.008	0.001	0.99	0.034	-0.034	2.953	2.953
40.800000000000004	-0.001	-0.007	0.028	0.719	-0.034	-0.034	2.953	2.953
41.0	-0.002	-0.003	0.087	0.144	-0.034	-0.034	2.953	2.953
41.2	-0.002	0.002	0.096	0.055	-0.034	0.034	2.953	2.953
41.4	-0.002	0.006	0.043	0.575	-0.034	0.034	2.953	2.953
41.6	-0.0	0.008	0.001	0.989	-0.034	0.034	2.953	2.953
41.800000000000004	0.001	0.007	0.027	0.727	0.034	0.034	2.953	2.953
42.0	0.002	0.003	0.086	0.15	0.034	0.034	2.953	2.953
42.2	0.002	-0.002	0.096	0.051	0.034	-0.034	2.953	2.953
42.4	0.002	-0.006	0.044	0.565	0.034	-0.034	2.953	2.953
42.6	0.0	-0.008	0.001	0.987	0.034	-0.034	2.953	2.953
42.800000000000004	-0.001	-0.007	0.026	0.736	-0.034	-0.034	2.953	2.953
43.0	-0.002	-0.003	0.085	0.157	-0.034	-0.034	2.953	2.953
43.2	-0.002	0.002	0.097	0.047	-0.034	0.034	2.953	2.953
43.4	-0.002	0.006	0.045	0.556	-0.034	0.034	2.953	2.953
43.6	-0.0	0.008	0.001	0.985	-0.034	0.034	2.953	2.953
43.800000000000004	0.001	0.007	0.026	0.744	0.034	0.034	2.953	2.953
44.0	0.002	0.003	0.085	0.164	0.034	0.034	2.953	2.953
44.2	0.002	-0.002	0.097	0.043	0.034	-0.034	2.953	2.953
44.4	0.002	-0.006	0.046	0.547	0.034	-0.034	2.953	2.953
44.6	0.0	-0.008	0.001	0.983	0.034	-0.034	2.953	2.953
44.800000000000004	-0.001	-0.007	0.025	0.752	-0.034	-0.034	2.953	2.953
45.0	-0.002	-0.003	0.084	0.171	-0.034	-0.034	2.953	2.953
45.2	-0.002	0.002	0.097	0.039	-0.034	0.034	2.953	2.953
45.4	-0.002	0.006	0.047	0.537	-0.034	0.034	2.953	2.953
45.6	-0.0	0.008	0.001	0.981	-0.034	0.034	2.953	2.953
45.800000000000004	0.001	0.007	0.024	0.76	0.034	0.034	2.953	2.953
46.0	0.002	0.003	0.083	0.178	0.034	0.034	2.953	2.953
46.2	0.002	-0.001	0.098	0.035	0.034	-0.034	2.953	2.953
46.4	0.002	-0.006	0.048	0.528	0.034	-0.034	2.953	2.953
46.6	0.0	-0.008	0.002	0.979	0.034	-0.034	2.953	2.953
46.800000000000004	-0.001	-0.007	0.023	0.768	-0.034	-0.034	2.953	2.953
47.0	-0.002	-0.003	0.083	0.186	-0.034	-0.034	2.953	2.953
47.2	-0.002	0.001	0.098	0.032	-0.034	0.034	2.953	2.953
47.4	-0.002	0.006	0.049	0.518	-0.034	0.034	2.953	2.953
47.6	-0.0	0.008	0.002	0.976	-0.034	0.034	2.953	2.953
47.800000000000004	0.001	0.007	0.022	0.776	0.034	0.034	2.953	2.953
48.0	0.002	0.003	0.082	0.193	0.034	0.034	2.953	2.953
48.2	0.002	-0.001	0.099	0.029	0.034	-0.034	2.953	2.953
48.4	0.002	-0.006	0.05	0.509	0.034	-0.034	2.953	2.953
48.6	0.0	-0.008	0.002	0.974	0.034	-0.034	2.953	2.953
48.800000000000004	-0.001	-0.007	0.022	0.784	-0.034	-0.034	2.953	2.953
49.0	-0.002	-0.004	0.081	0.201	-0.034	-0.034	2.953	2.953
49.2	-0.002	0.001	0.099	0.026	-0.034	0.034	2.953	2.953
49.4	-0.002	0.006	0.051	0.499	-0.034	0.034	2.953	2.953
49.6	-0.0	0.008	0.002	0.971	-0.034	0.034	2.953	2.953
49.800000000000004	0.001	0.007	0.021	0.792	0.034	0.034	2.953	2.953
50.0	0.002	0.004	0.08	0.208	0.034	0.034	2.953	2.953
