2.0	-0.0	
2.0	-0.001	
2.0	-0.004	
1.999	-0.009	
1.998	-0.015	
1.997	-0.024	
1.996	-0.034	
1.994	-0.046	
1.992	-0.061	
1.99	-0.077	
1.987	-0.095	
1.985	-0.115	
1.981	-0.137	
1.978	-0.16	
1.974	-0.186	
1.97	-0.213	
1.965	-0.242	
1.96	-0.274	
1.954	-0.307	
1.948	-0.341	
1.941	-0.378	
1.934	-0.417	
1.926	-0.457	
1.917	-0.5	
1.907	-0.544	
1.897	-0.59	
1.886	-0.638	
1.873	-0.688	
1.86	-0.739	
1.846	-0.793	
1.83	-0.848	
1.813	-0.906	
1.795	-0.965	
1.775	-1.026	
1.753	-1.088	
1.73	-1.153	
1.704	-1.219	
1.677	-1.287	
1.647	-1.356	
1.615	-1.427	
1.58	-1.499	
1.542	-1.572	
1.501	-1.646	
1.457	-1.722	
1.41	-1.797	
1.359	-1.873	
1.305	-1.95	
1.247	-2.026	
1.185	-2.101	
1.119	-2.175	
1.049	-2.249	
0.975	-2.32	
0.897	-2.389	
0.815	-2.455	
0.729	-2.517	
0.639	-2.575	
0.545	-2.629	
0.447	-2.677	
0.347	-2.719	
0.244	-2.755	
0.138	-2.783	
0.031	-2.803	
-0.077	-2.815	
-0.186	-2.819	
-0.294	-2.813	
-0.401	-2.798	
-0.506	-2.775	
-0.609	-2.743	
-0.709	-2.704	
-0.805	-2.656	
-0.896	-2.602	
-0.984	-2.542	
-1.066	-2.476	
-1.144	-2.406	
-1.216	-2.331	
-1.284	-2.254	
-1.346	-2.174	
-1.404	-2.092	
-1.456	-2.008	
-1.504	-1.923	
-1.547	-1.838	
-1.585	-1.753	
-1.62	-1.669	
-1.65	-1.585	
-1.676	-1.502	
-1.699	-1.42	
-1.718	-1.339	
-1.734	-1.26	
-1.747	-1.183	
-1.757	-1.108	
-1.764	-1.035	
-1.769	-0.964	
-1.771	-0.895	
-1.772	-0.829	
-1.77	-0.765	
-1.767	-0.703	
-1.762	-0.643	
-1.755	-0.586	
-1.748	-0.531	
-1.738	-0.478	
-1.728	-0.428	
-1.717	-0.38	
-1.705	-0.334	
-1.691	-0.29	
-1.678	-0.249	
-1.663	-0.21	
-1.648	-0.173	
-1.632	-0.138	
-1.615	-0.105	
-1.598	-0.074	
-1.581	-0.045	
-1.563	-0.018	
-1.545	0.007	
-1.526	0.03	
-1.508	0.052	
-1.488	0.071	
-1.469	0.089	
-1.449	0.105	
-1.429	0.119	
-1.409	0.132	
-1.389	0.143	
-1.368	0.153	
-1.348	0.161	
-1.327	0.167	
-1.306	0.172	
-1.284	0.176	
-1.263	0.178	
-1.241	0.18	
-1.219	0.179	
-1.197	0.178	
-1.175	0.175	
-1.153	0.172	
-1.131	0.167	
-1.108	0.162	
-1.085	0.155	
-1.062	0.148	
-1.039	0.14	
-1.016	0.131	
-0.993	0.122	
-0.969	0.112	
-0.946	0.101	
-0.922	0.091	
-0.898	0.079	
-0.875	0.068	
-0.851	0.056	
-0.827	0.045	
-0.803	0.033	
-0.779	0.021	
-0.755	0.01	
-0.731	-0.002	
-0.707	-0.013	
-0.684	-0.024	
-0.66	-0.034	
-0.637	-0.045	
-0.614	-0.055	
-0.592	-0.064	
-0.57	-0.073	
-0.548	-0.082	
-0.527	-0.09	
-0.506	-0.097	
-0.486	-0.104	
-0.467	-0.111	
-0.449	-0.117	
-0.431	-0.123	
-0.414	-0.129	
-0.398	-0.134	
-0.382	-0.139	
-0.368	-0.144	
-0.355	-0.149	
-0.343	-0.153	
-0.332	-0.158	
-0.322	-0.163	
-0.313	-0.168	
-0.305	-0.174	
-0.298	-0.18	
-0.292	-0.186	
-0.288	-0.193	
-0.284	-0.201	
-0.281	-0.21	
-0.28	-0.219	
-0.28	-0.23	
-0.28	-0.242	
-0.281	-0.255	
-0.284	-0.269	
-0.286	-0.285	
-0.29	-0.303	
-0.295	-0.322	
-0.299	-0.343	
-0.305	-0.365	
-0.311	-0.39	
-0.317	-0.416	
-0.323	-0.444	
-0.33	-0.475	
-0.337	-0.507	
-0.344	-0.542	
-0.35	-0.579	
-0.357	-0.618	
-0.363	-0.659	
-0.369	-0.702	
-0.374	-0.748	
-0.379	-0.796	
-0.384	-0.846	
-0.388	-0.898	
-0.391	-0.952	
-0.393	-1.009	
-0.394	-1.067	
-0.395	-1.128	
-0.394	-1.19	
-0.393	-1.255	
-0.39	-1.321	
-0.386	-1.389	
-0.381	-1.458	
-0.375	-1.529	
-0.368	-1.602	
-0.359	-1.675	
-0.349	-1.75	
-0.337	-1.826	
-0.324	-1.902	
-0.309	-1.979	
-0.292	-2.055	
-0.274	-2.132	
-0.253	-2.208	
-0.231	-2.282	
-0.207	-2.356	
-0.181	-2.427	
-0.152	-2.495	
-0.122	-2.559	
-0.089	-2.619	
-0.055	-2.673	
-0.018	-2.72	
0.02	-2.76	
0.059	-2.791	
0.1	-2.812	
0.14	-2.823	
0.18	-2.822	
0.219	-2.811	
0.256	-2.789	
0.292	-2.756	
0.325	-2.715	
0.355	-2.666	
0.382	-2.61	
0.407	-2.548	
0.428	-2.482	
0.447	-2.412	
0.463	-2.339	
0.476	-2.263	
0.487	-2.187	
0.496	-2.109	
0.503	-2.03	
0.508	-1.952	
0.511	-1.874	
0.513	-1.796	
0.513	-1.719	
0.511	-1.643	
0.508	-1.568	
0.504	-1.495	
0.5	-1.423	
0.494	-1.352	
0.487	-1.283	
0.479	-1.216	
0.471	-1.151	
0.461	-1.088	
0.452	-1.027	
0.441	-0.967	
0.431	-0.91	
0.419	-0.855	
0.408	-0.802	
0.396	-0.751	
0.384	-0.702	
0.371	-0.656	
0.359	-0.611	
0.346	-0.569	
0.334	-0.529	
0.321	-0.491	
0.308	-0.455	
0.296	-0.421	
0.284	-0.39	
0.272	-0.36	
0.261	-0.332	
0.25	-0.307	
0.239	-0.283	
0.229	-0.261	
0.219	-0.241	
0.211	-0.222	
0.202	-0.205	
0.195	-0.19	
0.188	-0.176	
0.182	-0.164	
0.177	-0.153	
0.173	-0.143	
0.17	-0.135	
0.168	-0.127	
0.167	-0.121	
0.167	-0.115	
0.168	-0.111	
0.17	-0.107	
0.173	-0.103	
0.178	-0.101	
0.183	-0.098	
0.189	-0.096	
0.197	-0.095	
0.206	-0.093	
0.215	-0.091	
0.226	-0.09	
0.238	-0.088	
0.25	-0.087	
0.264	-0.085	
0.278	-0.082	
0.294	-0.08	
0.31	-0.077	
0.326	-0.073	
0.344	-0.069	
0.362	-0.065	
0.381	-0.06	
0.4	-0.054	
0.42	-0.048	
0.44	-0.041	
0.46	-0.034	
0.481	-0.026	
0.502	-0.018	
0.523	-0.009	
0.545	0.001	
0.566	0.011	
0.587	0.021	
0.609	0.031	
0.63	0.042	
0.652	0.054	
0.673	0.065	
0.694	0.076	
0.715	0.088	
0.736	0.1	
0.756	0.111	
0.777	0.122	
0.797	0.133	
0.817	0.144	
0.837	0.155	
0.856	0.165	
0.875	0.175	
0.894	0.184	
0.913	0.192	
0.931	0.2	
0.949	0.207	
0.967	0.214	
0.985	0.219	
1.002	0.224	
1.019	0.228	
1.036	0.231	
1.053	0.233	
1.069	0.234	
1.085	0.233	
1.101	0.232	
1.117	0.229	
1.132	0.226	
1.148	0.221	
1.163	0.214	
1.178	0.207	
1.192	0.198	
1.207	0.188	
1.221	0.177	
1.235	0.164	
1.249	0.15	
1.263	0.134	
1.276	0.117	
1.289	0.099	
1.302	0.079	
1.315	0.058	
1.328	0.035	
1.34	0.01	
1.352	-0.016	
1.364	-0.043	
1.375	-0.073	
1.386	-0.104	
1.397	-0.136	
1.408	-0.171	
1.418	-0.207	
1.427	-0.245	
1.436	-0.285	
1.445	-0.327	
1.453	-0.371	
1.46	-0.416	
1.466	-0.464	
1.472	-0.514	
1.477	-0.566	
1.48	-0.62	
1.482	-0.677	
1.484	-0.736	
1.483	-0.796	
1.481	-0.86	
1.477	-0.925	
1.472	-0.993	
1.464	-1.063	
1.454	-1.135	
1.441	-1.209	
1.426	-1.284	
1.408	-1.362	
1.387	-1.442	
1.362	-1.523	
1.334	-1.605	
1.302	-1.688	
1.267	-1.772	
1.227	-1.857	
1.184	-1.941	
1.136	-2.025	
1.083	-2.109	
1.026	-2.191	
0.965	-2.271	
0.899	-2.349	
0.828	-2.424	
0.752	-2.495	
0.672	-2.561	
0.588	-2.622	
0.499	-2.676	
0.407	-2.724	
0.312	-2.763	
0.214	-2.794	
0.114	-2.815	
0.013	-2.826	
-0.089	-2.827	
-0.19	-2.818	
-0.29	-2.798	
-0.388	-2.769	
-0.483	-2.731	
-0.574	-2.684	
-0.662	-2.63	
-0.745	-2.569	
-0.824	-2.502	
-0.898	-2.431	
-0.968	-2.355	
-1.032	-2.276	
-1.091	-2.194	
-1.146	-2.11	
-1.196	-2.025	
-1.241	-1.939	
-1.281	-1.853	
-1.318	-1.767	
-1.35	-1.681	
-1.378	-1.595	
-1.402	-1.511	
-1.423	-1.428	
-1.44	-1.347	
-1.454	-1.268	
-1.465	-1.19	
-1.474	-1.114	
-1.479	-1.041	
-1.482	-0.97	
-1.483	-0.901	
-1.482	-0.834	
-1.479	-0.77	
-1.475	-0.708	
-1.468	-0.649	
-1.461	-0.592	
-1.452	-0.537	
-1.442	-0.484	
-1.431	-0.434	
-1.419	-0.386	
-1.406	-0.341	
-1.393	-0.297	
-1.378	-0.256	
-1.363	-0.217	
-1.348	-0.179	
-1.332	-0.144	
-1.316	-0.11	
-1.299	-0.079	
-1.282	-0.049	
-1.265	-0.021	
-1.247	0.006	
-1.229	0.03	
-1.211	0.053	
-1.192	0.075	
-1.173	0.094	
-1.154	0.113	
-1.135	0.129	
-1.116	0.145	
-1.096	0.158	
-1.076	0.171	
-1.056	0.182	
-1.035	0.192	
-1.014	0.2	
-0.993	0.207	
-0.972	0.213	
-0.951	0.217	
-0.929	0.221	
-0.907	0.223	
-0.884	0.224	
-0.862	0.224	
-0.839	0.223	
-0.816	0.221	
-0.792	0.218	
-0.768	0.214	
-0.744	0.21	
-0.719	0.204	
-0.694	0.198	
-0.669	0.191	
-0.643	0.183	
-0.616	0.175	
-0.59	0.167	
-0.562	0.158	
-0.535	0.148	
-0.507	0.138	
-0.478	0.129	
-0.449	0.118	
-0.419	0.108	
-0.389	0.098	
-0.358	0.088	
-0.327	0.078	
-0.295	0.068	
-0.263	0.058	
-0.23	0.049	
-0.197	0.04	
-0.163	0.032	
-0.128	0.024	
-0.094	0.017	
-0.058	0.01	
-0.022	0.003	
0.014	-0.002	
0.051	-0.007	
0.088	-0.011	
0.126	-0.015	
0.164	-0.017	
0.202	-0.02	
0.241	-0.021	
0.28	-0.022	
0.32	-0.022	
0.359	-0.021	
0.399	-0.02	
0.439	-0.019	
0.48	-0.017	
0.52	-0.015	
0.561	-0.012	
0.602	-0.009	
0.643	-0.006	
0.684	-0.003	
0.725	-0.0	
0.766	0.003	
0.807	0.006	
0.849	0.008	
0.89	0.01	
0.932	0.011	
0.973	0.012	
1.015	0.012	
1.056	0.011	
1.097	0.009	
1.139	0.006	
1.18	0.002	
1.221	-0.004	
1.262	-0.01	
1.303	-0.018	
1.343	-0.028	
1.384	-0.04	
1.424	-0.053	
1.463	-0.068	
1.503	-0.085	
1.542	-0.103	
1.58	-0.124	
1.618	-0.147	
1.656	-0.172	
1.693	-0.2	
1.729	-0.23	
1.764	-0.262	
1.798	-0.296	
1.832	-0.333	
1.864	-0.373	
1.895	-0.415	
1.925	-0.46	
1.953	-0.507	
1.979	-0.557	
2.004	-0.609	
2.027	-0.664	
2.048	-0.721	
2.067	-0.781	
2.084	-0.844	
2.097	-0.909	
2.109	-0.976	
2.117	-1.045	
2.121	-1.117	
2.123	-1.19	
2.121	-1.265	
2.115	-1.341	
2.105	-1.419	
2.09	-1.498	
2.071	-1.578	
2.047	-1.658	
2.018	-1.738	
1.984	-1.817	
1.945	-1.896	
1.9	-1.973	
1.85	-2.049	
1.794	-2.122	
1.733	-2.193	
1.666	-2.26	
1.594	-2.324	
1.516	-2.383	
1.434	-2.437	
1.347	-2.487	
1.257	-2.531	
1.162	-2.569	
1.065	-2.602	
0.965	-2.63	
0.862	-2.651	
0.758	-2.667	
0.653	-2.678	
0.547	-2.683	
0.441	-2.684	
0.335	-2.679	
0.229	-2.67	
0.124	-2.657	
0.021	-2.64	
-0.082	-2.619	
-0.183	-2.595	
-0.282	-2.568	
-0.38	-2.539	
-0.476	-2.507	
-0.569	-2.472	
-0.661	-2.436	
-0.75	-2.398	
-0.837	-2.359	
-0.922	-2.318	
-1.005	-2.277	
-1.086	-2.234	
-1.164	-2.191	
-1.24	-2.148	
-1.314	-2.104	
-1.386	-2.06	
-1.456	-2.015	
-1.524	-1.971	
-1.59	-1.927	
-1.653	-1.883	
-1.715	-1.839	
-1.774	-1.796	
-1.832	-1.753	
-1.888	-1.711	
-1.941	-1.669	
-1.992	-1.628	
-2.042	-1.588	
-2.089	-1.549	
-2.134	-1.51	
-2.178	-1.472	
-2.219	-1.436	
-2.258	-1.4	
-2.295	-1.366	
-2.33	-1.333	
-2.362	-1.301	
-2.393	-1.27	
-2.422	-1.241	
-2.449	-1.213	
-2.474	-1.187	
-2.496	-1.162	
-2.517	-1.139	
-2.537	-1.117	
-2.554	-1.097	
-2.57	-1.079	
-2.584	-1.062	
-2.596	-1.047	
-2.607	-1.034	
-2.616	-1.023	
-2.624	-1.013	
-2.631	-1.006	
-2.636	-1.0	
-2.64	-0.996	
-2.643	-0.994	
-2.644	-0.994	
-2.645	-0.996	
-2.644	-1.0	
-2.643	-1.006	
-2.64	-1.014	
-2.637	-1.024	
-2.632	-1.036	
-2.626	-1.05	
-2.62	-1.065	
-2.612	-1.083	
-2.604	-1.103	
-2.594	-1.124	
-2.584	-1.148	
-2.572	-1.173	
-2.559	-1.2	
-2.545	-1.229	
-2.53	-1.26	
-2.514	-1.292	
-2.496	-1.326	
-2.477	-1.362	
-2.456	-1.399	
-2.434	-1.438	
-2.41	-1.478	
-2.385	-1.519	
-2.358	-1.561	
-2.328	-1.605	
-2.297	-1.649	
-2.264	-1.695	
-2.229	-1.741	
-2.192	-1.788	
-2.152	-1.835	
-2.11	-1.883	
-2.066	-1.931	
-2.019	-1.979	
-1.969	-2.027	
-1.917	-2.074	
-1.863	-2.122	
-1.805	-2.168	
-1.745	-2.214	
-1.683	-2.259	
-1.618	-2.303	
-1.55	-2.346	
-1.479	-2.388	
-1.406	-2.428	
-1.331	-2.466	
-1.253	-2.502	
-1.172	-2.537	
-1.09	-2.57	
-1.005	-2.6	
-0.918	-2.628	
-0.829	-2.654	
-0.739	-2.677	
-0.646	-2.698	
-0.553	-2.716	
-0.458	-2.731	
-0.361	-2.744	
-0.264	-2.753	
-0.165	-2.76	
-0.066	-2.764	
0.033	-2.765	
0.133	-2.762	
0.233	-2.757	
0.334	-2.748	
0.434	-2.736	
0.533	-2.721	
0.632	-2.703	
0.73	-2.682	
0.828	-2.658	
0.924	-2.63	
1.018	-2.6	
1.111	-2.566	
1.203	-2.53	
1.292	-2.491	
1.379	-2.449	
1.463	-2.404	
1.545	-2.356	
1.624	-2.307	
1.7	-2.255	
1.773	-2.201	
1.842	-2.145	
1.909	-2.087	
1.971	-2.028	
2.03	-1.968	
2.086	-1.906	
2.138	-1.843	
2.185	-1.78	
2.23	-1.717	
2.27	-1.653	
2.306	-1.589	
2.339	-1.525	
2.368	-1.462	
2.394	-1.399	
2.416	-1.337	
2.434	-1.276	
2.449	-1.217	
2.461	-1.158	
2.47	-1.101	
2.476	-1.046	
2.479	-0.992	
2.479	-0.94	
2.477	-0.89	
2.472	-0.842	
2.464	-0.796	
2.454	-0.752	
2.443	-0.71	
2.429	-0.671	
2.413	-0.634	
2.396	-0.599	
2.376	-0.566	
2.355	-0.535	
2.333	-0.507	
2.309	-0.482	
2.284	-0.458	
2.258	-0.437	
2.231	-0.418	
2.202	-0.401	
2.173	-0.387	
2.142	-0.374	
2.111	-0.364	
2.079	-0.356	
2.046	-0.35	
2.013	-0.345	
1.979	-0.343	
1.944	-0.342	
1.909	-0.343	
1.874	-0.346	
1.838	-0.351	
1.802	-0.357	
1.766	-0.364	
1.73	-0.373	
1.693	-0.383	
1.657	-0.394	
1.62	-0.407	
1.584	-0.42	
1.548	-0.435	
1.511	-0.45	
1.476	-0.467	
1.44	-0.484	
1.405	-0.502	
1.37	-0.52	
1.335	-0.539	
1.301	-0.559	
1.267	-0.58	
1.234	-0.601	
1.202	-0.623	
1.17	-0.646	
1.139	-0.669	
1.108	-0.693	
1.078	-0.718	
1.049	-0.744	
1.02	-0.77	
0.992	-0.798	
0.964	-0.827	
0.936	-0.857	
0.909	-0.888	
0.882	-0.921	
0.855	-0.955	
0.828	-0.99	
0.801	-1.027	
0.774	-1.066	
0.746	-1.106	
0.717	-1.148	
0.688	-1.191	
0.657	-1.237	
0.626	-1.284	
0.593	-1.332	
0.558	-1.383	
0.522	-1.434	
0.484	-1.487	
0.445	-1.542	
0.403	-1.597	
0.359	-1.654	
0.313	-1.711	
0.264	-1.769	
0.214	-1.828	
0.161	-1.886	
0.105	-1.945	
0.048	-2.003	
-0.012	-2.061	
-0.074	-2.118	
-0.139	-2.175	
-0.205	-2.229	
-0.273	-2.282	
-0.343	-2.333	
-0.414	-2.381	
-0.486	-2.425	
-0.56	-2.467	
-0.634	-2.504	
-0.709	-2.536	
-0.783	-2.562	
-0.857	-2.582	
-0.929	-2.595	
-0.999	-2.601	
-1.066	-2.598	
-1.13	-2.586	
-1.189	-2.566	
-1.243	-2.537	
-1.292	-2.499	
-1.334	-2.454	
-1.37	-2.401	
-1.4	-2.342	
-1.423	-2.278	
-1.44	-2.21	
-1.451	-2.137	
-1.456	-2.063	
-1.456	-1.986	
-1.451	-1.909	
-1.442	-1.83	
-1.428	-1.752	
-1.411	-1.673	
-1.39	-1.596	
-1.366	-1.519	
-1.339	-1.444	
-1.309	-1.37	
-1.277	-1.297	
-1.243	-1.227	
-1.206	-1.158	
-1.169	-1.091	
-1.129	-1.026	
-1.089	-0.963	
-1.047	-0.902	
-1.005	-0.843	
-0.961	-0.786	
-0.917	-0.731	
-0.873	-0.678	
-0.828	-0.627	
-0.782	-0.578	
-0.737	-0.532	
-0.691	-0.487	
-0.646	-0.444	
-0.6	-0.402	
-0.555	-0.363	
-0.51	-0.325	
-0.465	-0.289	
-0.42	-0.255	
-0.376	-0.222	
-0.331	-0.191	
-0.288	-0.162	
-0.245	-0.134	
-0.202	-0.107	
-0.159	-0.082	
-0.117	-0.059	
-0.076	-0.037	
-0.034	-0.016	
0.006	0.003	
0.047	0.021	
0.087	0.037	
0.126	0.052	
0.165	0.065	
0.204	0.077	
0.243	0.087	
0.281	0.096	
0.318	0.104	
0.356	0.11	
0.393	0.115	
0.429	0.118	
0.466	0.119	
0.502	0.119	
0.538	0.118	
0.573	0.115	
0.609	0.11	
0.644	0.103	
0.679	0.095	
0.713	0.085	
0.747	0.074	
0.781	0.06	
0.815	0.045	
0.849	0.028	
0.882	0.009	
0.915	-0.012	
0.948	-0.035	
0.98	-0.061	
1.012	-0.088	
1.043	-0.118	
1.074	-0.149	
1.105	-0.184	
1.134	-0.22	
1.163	-0.259	
1.192	-0.301	
1.219	-0.345	
1.246	-0.391	
1.271	-0.441	
1.296	-0.493	
1.319	-0.547	
1.34	-0.605	
1.36	-0.665	
1.379	-0.728	
1.395	-0.794	
1.409	-0.862	
1.421	-0.933	
1.431	-1.007	
1.438	-1.083	
1.441	-1.161	
1.442	-1.242	
1.44	-1.325	
1.434	-1.41	
1.424	-1.496	
1.411	-1.584	
1.393	-1.672	
1.371	-1.762	
1.345	-1.852	
1.313	-1.942	
1.277	-2.031	
1.236	-2.119	
1.189	-2.206	
1.138	-2.289	
1.08	-2.37	
1.017	-2.447	
0.949	-2.518	
0.876	-2.584	
0.797	-2.643	
0.714	-2.694	
0.626	-2.737	
0.535	-2.77	
0.44	-2.793	
0.344	-2.806	
0.246	-2.809	
0.148	-2.801	
0.05	-2.783	
-0.047	-2.756	
-0.141	-2.72	
-0.234	-2.677	
-0.323	-2.627	
-0.409	-2.57	
-0.492	-2.509	
-0.57	-2.442	
-0.645	-2.373	
-0.716	-2.3	
-0.782	-2.224	
-0.845	-2.147	
-0.903	-2.069	
-0.957	-1.989	
-1.008	-1.909	
-1.054	-1.829	
-1.097	-1.749	
-1.136	-1.67	
-1.172	-1.592	
-1.204	-1.515	
-1.234	-1.439	
-1.26	-1.364	
-1.284	-1.292	