%T=5, sigma=10^-2
k	r3	r4	K
100	0.9924620449994995	1.8330898474493476	0.144636929595423
50	2.118619138502688	1.8215736628074162	0.0730192203564374
33.3	3.1391859794777326	2.268244064330489	0.009167903515936101
25	3.923708102614225	1.7976543820928477	0.037723110390874205
16.6	5.331173498116447	2.347979581798557	0.010586424673452678
12.5	6.40228364853594	2.7458497025588877	0.016201216702258384
10	7.194653438390195	1.8086873998989186	0.017468018992192753
8.33	7.957491118099662	3.763992292933977	0.056657022073470745
7.14	8.520518700109367	4.198128288954639	0.07742645280362474
6.25	8.923320184576866	2.9507206237613923	0.039232878303440744
5	9.554734676084584	2.4152840797922406	0.012517332151021486
4.16	10.059981953985773	6.130686110166576	0.2846995191474797
3.57	10.165202580815691	7.4060114685061444	0.4081606855666048