\babel@toc {french}{}
\contentsline {section}{\numberline {1}Introduction}{1}{section.1}%
\contentsline {section}{\numberline {2}\IeC {\'E}quations de l'attrateur de Lorenz}{1}{section.2}%
\contentsline {subsection}{\numberline {2.1}Instabilit\IeC {\'e} de Rayleigh-B\IeC {\'e}nard}{1}{subsection.2.1}%
\contentsline {subsection}{\numberline {2.2}\IeC {\'E}quations de convection de Saltzman}{2}{subsection.2.2}%
\contentsline {subsection}{\numberline {2.3}Adimensionnalisation}{4}{subsection.2.3}%
\contentsline {subsection}{\numberline {2.4}Mod\IeC {\`e}le de Lorenz}{5}{subsection.2.4}%
\contentsline {section}{\numberline {3}Conclusion}{8}{section.3}%
