\relax 
\providecommand\hyper@newdestlabel[2]{}
\@nameuse{bbl@beforestart}
\catcode `:\active 
\catcode `;\active 
\catcode `!\active 
\catcode `?\active 
\providecommand\HyperFirstAtBeginDocument{\AtBeginDocument}
\HyperFirstAtBeginDocument{\ifx\hyper@anchor\@undefined
\global\let\oldcontentsline\contentsline
\gdef\contentsline#1#2#3#4{\oldcontentsline{#1}{#2}{#3}}
\global\let\oldnewlabel\newlabel
\gdef\newlabel#1#2{\newlabelxx{#1}#2}
\gdef\newlabelxx#1#2#3#4#5#6{\oldnewlabel{#1}{{#2}{#3}}}
\AtEndDocument{\ifx\hyper@anchor\@undefined
\let\contentsline\oldcontentsline
\let\newlabel\oldnewlabel
\fi}
\fi}
\global\let\hyper@last\relax 
\gdef\HyperFirstAtBeginDocument#1{#1}
\providecommand\HyField@AuxAddToFields[1]{}
\providecommand\HyField@AuxAddToCoFields[2]{}
\babel@aux{french}{}
\citation{L63}
\citation{S62}
\citation{Rayleigh1916}
\citation{coursfaure}
\@writefile{toc}{\contentsline {section}{\numberline {1}Introduction}{1}{section.1}\protected@file@percent }
\@writefile{toc}{\contentsline {section}{\numberline {2}\IeC {\'E}quations de l'attrateur de Lorenz}{1}{section.2}\protected@file@percent }
\@writefile{toc}{\contentsline {subsection}{\numberline {2.1}Instabilit\IeC {\'e} de Rayleigh-B\IeC {\'e}nard}{1}{subsection.2.1}\protected@file@percent }
\@writefile{lof}{\contentsline {figure}{\numberline {1}{\ignorespaces Mod\IeC {\`e}le de Rayleigh-B\IeC {\'e}nard}}{1}{figure.1}\protected@file@percent }
\citation{S62}
\@writefile{toc}{\contentsline {subsection}{\numberline {2.2}\IeC {\'E}quations de convection de Saltzman}{2}{subsection.2.2}\protected@file@percent }
\@writefile{toc}{\contentsline {subsection}{\numberline {2.3}Adimensionnalisation}{4}{subsection.2.3}\protected@file@percent }
\@writefile{toc}{\contentsline {subsection}{\numberline {2.4}Mod\IeC {\`e}le de Lorenz}{5}{subsection.2.4}\protected@file@percent }
\citation{*}
\bibstyle{plain}
\bibdata{bib}
\bibcite{baines_lorenz_2008}{1}
\bibcite{coursfaure}{2}
\bibcite{L63}{3}
\bibcite{Rayleigh1916}{4}
\bibcite{S62}{5}
\@writefile{toc}{\contentsline {section}{\numberline {3}Conclusion}{8}{section.3}\protected@file@percent }
