set terminal epslatex size 12cm,10cm standalone

unset key

set xlabel "$t$"
set ylabel "$Y$"
set xrange[0:20]
set yrange[-30:50]
set xtics(0,4, 8, 12, 16, 20)

set output "3d.tex"
plot "data/3d/data3-1.dat" u 1:2 with line lw 2 lc rgb "#000000",\
	"data/3d/data3-1.dat" u 1:3 with line lw 2 lc rgb "#FF0000",\
	"data/3d/data3-2.dat" u 1:2 with line lw 2 lc rgb "#000000",\
	"data/3d/data3-2.dat" u 1:3 with line lw 2 lc rgb "#FF0000",\
	"data/3d/data3-3.dat" u 1:2 with line lw 2 lc rgb "#000000",\
	"data/3d/data3-3.dat" u 1:3 with line lw 2 lc rgb "#FF0000",\
	"data/3d/data3-4.dat" u 1:2 with line lw 2 lc rgb "#000000",\
	"data/3d/data3-4.dat" u 1:3 with line lw 2 lc rgb "#FF0000",\
	"data/3d/data3-5.dat" u 1:2 with line lw 2 lc rgb "#000000",\
	"data/3d/data3-5.dat" u 1:3 with line lw 2 lc rgb "#FF0000",\
	"data/3d/data3-6.dat" u 1:2 with line lw 2 lc rgb "#000000",\
	"data/3d/data3-6.dat" u 1:3 with line lw 2 lc rgb "#FF0000",\
	"data/3d/data3-7.dat" u 1:2 with line lw 2 lc rgb "#000000",\
	"data/3d/data3-7.dat" u 1:3 with line lw 2 lc rgb "#FF0000",\
	"data/3d/data3-8.dat" u 1:2 with line lw 2 lc rgb "#000000",\
	"data/3d/data3-8.dat" u 1:3 with line lw 2 lc rgb "#FF0000",\
	"data/3d/data3-9.dat" u 1:2 with line lw 2 lc rgb "#000000",\
	"data/3d/data3-9.dat" u 1:3 with line lw 2 lc rgb "#FF0000",\
	"data/3d/data3-10.dat" u 1:2 with line lw 2 lc rgb "#000000",\
	"data/3d/data3-10.dat" u 1:3 with line lw 2 lc rgb "#FF0000",\
	"data/3d/data3-11.dat" u 1:2 with line lw 2 lc rgb "#000000",\
	"data/3d/data3-11.dat" u 1:3 with line lw 2 lc rgb "#FF0000",\
	"data/3d/data3-12.dat" u 1:2 with line lw 2 lc rgb "#000000",\
	"data/3d/data3-12.dat" u 1:3 with line lw 2 lc rgb "#FF0000",\
	"data/3d/data3-13.dat" u 1:2 with line lw 2 lc rgb "#000000",\
	"data/3d/data3-13.dat" u 1:3 with line lw 2 lc rgb "#FF0000",\
	"data/3d/data3-14.dat" u 1:2 with line lw 2 lc rgb "#000000",\
	"data/3d/data3-14.dat" u 1:3 with line lw 2 lc rgb "#FF0000",\
	"data/3d/data3-15.dat" u 1:2 with line lw 2 lc rgb "#000000",\
	"data/3d/data3-15.dat" u 1:3 with line lw 2 lc rgb "#FF0000",\
	"data/3d/data3-16.dat" u 1:2 with line lw 2 lc rgb "#000000",\
	"data/3d/data3-16.dat" u 1:3 with line lw 2 lc rgb "#FF0000",\
	"data/3d/data3-17.dat" u 1:2 with line lw 2 lc rgb "#000000",\
	"data/3d/data3-17.dat" u 1:3 with line lw 2 lc rgb "#FF0000",\
	"data/3d/data3-18.dat" u 1:2 with line lw 2 lc rgb "#000000",\
	"data/3d/data3-18.dat" u 1:3 with line lw 2 lc rgb "#FF0000",\
	"data/3d/data3-19.dat" u 1:2 with line lw 2 lc rgb "#000000",\
	"data/3d/data3-19.dat" u 1:3 with line lw 2 lc rgb "#FF0000",\
	"data/3d/data3-20.dat" u 1:2 with line lw 2 lc rgb "#000000",\
	"data/3d/data3-20.dat" u 1:3 with line lw 2 lc rgb "#FF0000"

set output 

set output "4d.tex"
plot "data/4d/data4.dat" u 1:2 with line lw 2 lc rgb "#000000",\
	"data/4d/data4.dat" u 1:3 with line lw 2 lc rgb "#FF0000"
set output 

set output "k.tex"
plot "data/fk/datak-1.dat" u 1:2 with line lw 2 lc rgb "#000000",\
	"data/fk/datak-1.dat" u 1:3 with line lw 2 lc rgb "#FF0000",\
	"data/fk/datak-2.dat" u 1:2 with line lw 2 lc rgb "#000000",\
	"data/fk/datak-2.dat" u 1:3 with line lw 2 lc rgb "#FF0000",\
	"data/fk/datak-3.dat" u 1:2 with line lw 2 lc rgb "#000000",\
	"data/fk/datak-3.dat" u 1:3 with line lw 2 lc rgb "#FF0000",\
	"data/fk/datak-4.dat" u 1:2 with line lw 2 lc rgb "#000000",\
	"data/fk/datak-4.dat" u 1:3 with line lw 2 lc rgb "#FF0000",\
	"data/fk/datak-5.dat" u 1:2 with line lw 2 lc rgb "#000000",\
	"data/fk/datak-5.dat" u 1:3 with line lw 2 lc rgb "#FF0000",\
	"data/fk/datak-6.dat" u 1:2 with line lw 2 lc rgb "#000000",\
	"data/fk/datak-6.dat" u 1:3 with line lw 2 lc rgb "#FF0000",\
	"data/fk/datak-7.dat" u 1:2 with line lw 2 lc rgb "#000000",\
	"data/fk/datak-7.dat" u 1:3 with line lw 2 lc rgb "#FF0000",\
	"data/fk/datak-8.dat" u 1:2 with line lw 2 lc rgb "#000000",\
	"data/fk/datak-8.dat" u 1:3 with line lw 2 lc rgb "#FF0000",\
	"data/fk/datak-9.dat" u 1:2 with line lw 2 lc rgb "#000000",\
	"data/fk/datak-9.dat" u 1:3 with line lw 2 lc rgb "#FF0000",\
	"data/fk/datak-10.dat" u 1:2 with line lw 2 lc rgb "#000000",\
	"data/fk/datak-10.dat" u 1:3 with line lw 2 lc rgb "#FF0000",\
	"data/fk/datak-11.dat" u 1:2 with line lw 2 lc rgb "#000000",\
	"data/fk/datak-11.dat" u 1:3 with line lw 2 lc rgb "#FF0000",\
	"data/fk/datak-12.dat" u 1:2 with line lw 2 lc rgb "#000000",\
	"data/fk/datak-12.dat" u 1:3 with line lw 2 lc rgb "#FF0000",\
	"data/fk/datak-13.dat" u 1:2 with line lw 2 lc rgb "#000000",\
	"data/fk/datak-13.dat" u 1:3 with line lw 2 lc rgb "#FF0000",\
	"data/fk/datak-14.dat" u 1:2 with line lw 2 lc rgb "#000000",\
	"data/fk/datak-14.dat" u 1:3 with line lw 2 lc rgb "#FF0000",\
	"data/fk/datak-15.dat" u 1:2 with line lw 2 lc rgb "#000000",\
	"data/fk/datak-15.dat" u 1:3 with line lw 2 lc rgb "#FF0000",\
	"data/fk/datak-16.dat" u 1:2 with line lw 2 lc rgb "#000000",\
	"data/fk/datak-16.dat" u 1:3 with line lw 2 lc rgb "#FF0000",\
	"data/fk/datak-17.dat" u 1:2 with line lw 2 lc rgb "#000000",\
	"data/fk/datak-17.dat" u 1:3 with line lw 2 lc rgb "#FF0000",\
	"data/fk/datak-18.dat" u 1:2 with line lw 2 lc rgb "#000000",\
	"data/fk/datak-18.dat" u 1:3 with line lw 2 lc rgb "#FF0000",\
	"data/fk/datak-19.dat" u 1:2 with line lw 2 lc rgb "#000000",\
	"data/fk/datak-19.dat" u 1:3 with line lw 2 lc rgb "#FF0000",\
	"data/fk/datak-20.dat" u 1:2 with line lw 2 lc rgb "#000000",\
	"data/fk/datak-20.dat" u 1:3 with line lw 2 lc rgb "#FF0000",\
	"data/fk/datak-21.dat" u 1:2 with line lw 2 lc rgb "#000000",\
	"data/fk/datak-21.dat" u 1:3 with line lw 2 lc rgb "#FF0000",\
	"data/fk/datak-22.dat" u 1:2 with line lw 2 lc rgb "#000000",\
	"data/fk/datak-22.dat" u 1:3 with line lw 2 lc rgb "#FF0000",\
	"data/fk/datak-23.dat" u 1:2 with line lw 2 lc rgb "#000000",\
	"data/fk/datak-23.dat" u 1:3 with line lw 2 lc rgb "#FF0000",\
	"data/fk/datak-24.dat" u 1:2 with line lw 2 lc rgb "#000000",\
	"data/fk/datak-24.dat" u 1:3 with line lw 2 lc rgb "#FF0000",\
	"data/fk/datak-25.dat" u 1:2 with line lw 2 lc rgb "#000000",\
	"data/fk/datak-25.dat" u 1:3 with line lw 2 lc rgb "#FF0000",\
	"data/fk/datak-26.dat" u 1:2 with line lw 2 lc rgb "#000000",\
	"data/fk/datak-26.dat" u 1:3 with line lw 2 lc rgb "#FF0000",\
	"data/fk/datak-27.dat" u 1:2 with line lw 2 lc rgb "#000000",\
	"data/fk/datak-27.dat" u 1:3 with line lw 2 lc rgb "#FF0000",\
	"data/fk/datak-28.dat" u 1:2 with line lw 2 lc rgb "#000000",\
	"data/fk/datak-28.dat" u 1:3 with line lw 2 lc rgb "#FF0000",\
	"data/fk/datak-29.dat" u 1:2 with line lw 2 lc rgb "#000000",\
	"data/fk/datak-29.dat" u 1:3 with line lw 2 lc rgb "#FF0000",\
	"data/fk/datak-30.dat" u 1:2 with line lw 2 lc rgb "#000000",\
	"data/fk/datak-30.dat" u 1:3 with line lw 2 lc rgb "#FF0000",\
	"data/fk/datak-31.dat" u 1:2 with line lw 2 lc rgb "#000000",\
	"data/fk/datak-31.dat" u 1:3 with line lw 2 lc rgb "#FF0000",\
	"data/fk/datak-32.dat" u 1:2 with line lw 2 lc rgb "#000000",\
	"data/fk/datak-32.dat" u 1:3 with line lw 2 lc rgb "#FF0000",\
	"data/fk/datak-33.dat" u 1:2 with line lw 2 lc rgb "#000000",\
	"data/fk/datak-33.dat" u 1:3 with line lw 2 lc rgb "#FF0000",\
	"data/fk/datak-34.dat" u 1:2 with line lw 2 lc rgb "#000000",\
	"data/fk/datak-34.dat" u 1:3 with line lw 2 lc rgb "#FF0000",\
	"data/fk/datak-35.dat" u 1:2 with line lw 2 lc rgb "#000000",\
	"data/fk/datak-35.dat" u 1:3 with line lw 2 lc rgb "#FF0000",\
	"data/fk/datak-36.dat" u 1:2 with line lw 2 lc rgb "#000000",\
	"data/fk/datak-36.dat" u 1:3 with line lw 2 lc rgb "#FF0000",\
	"data/fk/datak-37.dat" u 1:2 with line lw 2 lc rgb "#000000",\
	"data/fk/datak-37.dat" u 1:3 with line lw 2 lc rgb "#FF0000",\
	"data/fk/datak-38.dat" u 1:2 with line lw 2 lc rgb "#000000",\
	"data/fk/datak-38.dat" u 1:3 with line lw 2 lc rgb "#FF0000",\
	"data/fk/datak-39.dat" u 1:2 with line lw 2 lc rgb "#000000",\
	"data/fk/datak-39.dat" u 1:3 with line lw 2 lc rgb "#FF0000",\
	"data/fk/datak-40.dat" u 1:2 with line lw 2 lc rgb "#000000",\
	"data/fk/datak-40.dat" u 1:3 with line lw 2 lc rgb "#FF0000",\
	"data/fk/datak-41.dat" u 1:2 with line lw 2 lc rgb "#000000",\
	"data/fk/datak-41.dat" u 1:3 with line lw 2 lc rgb "#FF0000",\
	"data/fk/datak-42.dat" u 1:2 with line lw 2 lc rgb "#000000",\
	"data/fk/datak-42.dat" u 1:3 with line lw 2 lc rgb "#FF0000",\
	"data/fk/datak-43.dat" u 1:2 with line lw 2 lc rgb "#000000",\
	"data/fk/datak-43.dat" u 1:3 with line lw 2 lc rgb "#FF0000",\
	"data/fk/datak-44.dat" u 1:2 with line lw 2 lc rgb "#000000",\
	"data/fk/datak-44.dat" u 1:3 with line lw 2 lc rgb "#FF0000",\
	"data/fk/datak-45.dat" u 1:2 with line lw 2 lc rgb "#000000",\
	"data/fk/datak-45.dat" u 1:3 with line lw 2 lc rgb "#FF0000",\
	"data/fk/datak-46.dat" u 1:2 with line lw 2 lc rgb "#000000",\
	"data/fk/datak-46.dat" u 1:3 with line lw 2 lc rgb "#FF0000",\
	"data/fk/datak-47.dat" u 1:2 with line lw 2 lc rgb "#000000",\
	"data/fk/datak-47.dat" u 1:3 with line lw 2 lc rgb "#FF0000",\
	"data/fk/datak-48.dat" u 1:2 with line lw 2 lc rgb "#000000",\
	"data/fk/datak-48.dat" u 1:3 with line lw 2 lc rgb "#FF0000",\
	"data/fk/datak-49.dat" u 1:2 with line lw 2 lc rgb "#000000",\
	"data/fk/datak-49.dat" u 1:3 with line lw 2 lc rgb "#FF0000",\
	"data/fk/datak-50.dat" u 1:2 with line lw 2 lc rgb "#000000",\
	"data/fk/datak-50.dat" u 1:3 with line lw 2 lc rgb "#FF0000",\
	"data/fk/datak-51.dat" u 1:2 with line lw 2 lc rgb "#000000",\
	"data/fk/datak-51.dat" u 1:3 with line lw 2 lc rgb "#FF0000",\
	"data/fk/datak-52.dat" u 1:2 with line lw 2 lc rgb "#000000",\
	"data/fk/datak-52.dat" u 1:3 with line lw 2 lc rgb "#FF0000",\
	"data/fk/datak-53.dat" u 1:2 with line lw 2 lc rgb "#000000",\
	"data/fk/datak-53.dat" u 1:3 with line lw 2 lc rgb "#FF0000",\
	"data/fk/datak-54.dat" u 1:2 with line lw 2 lc rgb "#000000",\
	"data/fk/datak-54.dat" u 1:3 with line lw 2 lc rgb "#FF0000",\
	"data/fk/datak-55.dat" u 1:2 with line lw 2 lc rgb "#000000",\
	"data/fk/datak-55.dat" u 1:3 with line lw 2 lc rgb "#FF0000",\
	"data/fk/datak-56.dat" u 1:2 with line lw 2 lc rgb "#000000",\
	"data/fk/datak-56.dat" u 1:3 with line lw 2 lc rgb "#FF0000",\
	"data/fk/datak-57.dat" u 1:2 with line lw 2 lc rgb "#000000",\
	"data/fk/datak-57.dat" u 1:3 with line lw 2 lc rgb "#FF0000",\
	"data/fk/datak-58.dat" u 1:2 with line lw 2 lc rgb "#000000",\
	"data/fk/datak-58.dat" u 1:3 with line lw 2 lc rgb "#FF0000",\
	"data/fk/datak-59.dat" u 1:2 with line lw 2 lc rgb "#000000",\
	"data/fk/datak-59.dat" u 1:3 with line lw 2 lc rgb "#FF0000",\
	"data/fk/datak-60.dat" u 1:2 with line lw 2 lc rgb "#000000",\
	"data/fk/datak-60.dat" u 1:3 with line lw 2 lc rgb "#FF0000",\
	"data/fk/datak-61.dat" u 1:2 with line lw 2 lc rgb "#000000",\
	"data/fk/datak-61.dat" u 1:3 with line lw 2 lc rgb "#FF0000",\
	"data/fk/datak-62.dat" u 1:2 with line lw 2 lc rgb "#000000",\
	"data/fk/datak-62.dat" u 1:3 with line lw 2 lc rgb "#FF0000",\
	"data/fk/datak-63.dat" u 1:2 with line lw 2 lc rgb "#000000",\
	"data/fk/datak-63.dat" u 1:3 with line lw 2 lc rgb "#FF0000",\
	"data/fk/datak-64.dat" u 1:2 with line lw 2 lc rgb "#000000",\
	"data/fk/datak-64.dat" u 1:3 with line lw 2 lc rgb "#FF0000",\
	"data/fk/datak-65.dat" u 1:2 with line lw 2 lc rgb "#000000",\
	"data/fk/datak-65.dat" u 1:3 with line lw 2 lc rgb "#FF0000",\
	"data/fk/datak-66.dat" u 1:2 with line lw 2 lc rgb "#000000",\
	"data/fk/datak-66.dat" u 1:3 with line lw 2 lc rgb "#FF0000",\
	"data/fk/datak-67.dat" u 1:2 with line lw 2 lc rgb "#000000",\
	"data/fk/datak-67.dat" u 1:3 with line lw 2 lc rgb "#FF0000",\
	"data/fk/datak-68.dat" u 1:2 with line lw 2 lc rgb "#000000",\
	"data/fk/datak-68.dat" u 1:3 with line lw 2 lc rgb "#FF0000",\
	"data/fk/datak-69.dat" u 1:2 with line lw 2 lc rgb "#000000",\
	"data/fk/datak-69.dat" u 1:3 with line lw 2 lc rgb "#FF0000",\
	"data/fk/datak-70.dat" u 1:2 with line lw 2 lc rgb "#000000",\
	"data/fk/datak-70.dat" u 1:3 with line lw 2 lc rgb "#FF0000",\
	"data/fk/datak-71.dat" u 1:2 with line lw 2 lc rgb "#000000",\
	"data/fk/datak-71.dat" u 1:3 with line lw 2 lc rgb "#FF0000",\
	"data/fk/datak-72.dat" u 1:2 with line lw 2 lc rgb "#000000",\
	"data/fk/datak-72.dat" u 1:3 with line lw 2 lc rgb "#FF0000",\
	"data/fk/datak-73.dat" u 1:2 with line lw 2 lc rgb "#000000",\
	"data/fk/datak-73.dat" u 1:3 with line lw 2 lc rgb "#FF0000",\
	"data/fk/datak-74.dat" u 1:2 with line lw 2 lc rgb "#000000",\
	"data/fk/datak-74.dat" u 1:3 with line lw 2 lc rgb "#FF0000",\
	"data/fk/datak-75.dat" u 1:2 with line lw 2 lc rgb "#000000",\
	"data/fk/datak-75.dat" u 1:3 with line lw 2 lc rgb "#FF0000",\
	"data/fk/datak-76.dat" u 1:2 with line lw 2 lc rgb "#000000",\
	"data/fk/datak-76.dat" u 1:3 with line lw 2 lc rgb "#FF0000",\
	"data/fk/datak-77.dat" u 1:2 with line lw 2 lc rgb "#000000",\
	"data/fk/datak-77.dat" u 1:3 with line lw 2 lc rgb "#FF0000",\
	"data/fk/datak-78.dat" u 1:2 with line lw 2 lc rgb "#000000",\
	"data/fk/datak-78.dat" u 1:3 with line lw 2 lc rgb "#FF0000",\
	"data/fk/datak-79.dat" u 1:2 with line lw 2 lc rgb "#000000",\
	"data/fk/datak-79.dat" u 1:3 with line lw 2 lc rgb "#FF0000",\
	"data/fk/datak-80.dat" u 1:2 with line lw 2 lc rgb "#000000",\
	"data/fk/datak-80.dat" u 1:3 with line lw 2 lc rgb "#FF0000",\
	"data/fk/datak-81.dat" u 1:2 with line lw 2 lc rgb "#000000",\
	"data/fk/datak-81.dat" u 1:3 with line lw 2 lc rgb "#FF0000",\
	"data/fk/datak-82.dat" u 1:2 with line lw 2 lc rgb "#000000",\
	"data/fk/datak-82.dat" u 1:3 with line lw 2 lc rgb "#FF0000",\
	"data/fk/datak-83.dat" u 1:2 with line lw 2 lc rgb "#000000",\
	"data/fk/datak-83.dat" u 1:3 with line lw 2 lc rgb "#FF0000",\
	"data/fk/datak-84.dat" u 1:2 with line lw 2 lc rgb "#000000",\
	"data/fk/datak-84.dat" u 1:3 with line lw 2 lc rgb "#FF0000",\
	"data/fk/datak-85.dat" u 1:2 with line lw 2 lc rgb "#000000",\
	"data/fk/datak-85.dat" u 1:3 with line lw 2 lc rgb "#FF0000",\
	"data/fk/datak-86.dat" u 1:2 with line lw 2 lc rgb "#000000",\
	"data/fk/datak-86.dat" u 1:3 with line lw 2 lc rgb "#FF0000",\
	"data/fk/datak-87.dat" u 1:2 with line lw 2 lc rgb "#000000",\
	"data/fk/datak-87.dat" u 1:3 with line lw 2 lc rgb "#FF0000",\
	"data/fk/datak-88.dat" u 1:2 with line lw 2 lc rgb "#000000",\
	"data/fk/datak-88.dat" u 1:3 with line lw 2 lc rgb "#FF0000",\
	"data/fk/datak-89.dat" u 1:2 with line lw 2 lc rgb "#000000",\
	"data/fk/datak-89.dat" u 1:3 with line lw 2 lc rgb "#FF0000",\
	"data/fk/datak-90.dat" u 1:2 with line lw 2 lc rgb "#000000",\
	"data/fk/datak-90.dat" u 1:3 with line lw 2 lc rgb "#FF0000",\
	"data/fk/datak-91.dat" u 1:2 with line lw 2 lc rgb "#000000",\
	"data/fk/datak-91.dat" u 1:3 with line lw 2 lc rgb "#FF0000",\
	"data/fk/datak-92.dat" u 1:2 with line lw 2 lc rgb "#000000",\
	"data/fk/datak-92.dat" u 1:3 with line lw 2 lc rgb "#FF0000",\
	"data/fk/datak-93.dat" u 1:2 with line lw 2 lc rgb "#000000",\
	"data/fk/datak-93.dat" u 1:3 with line lw 2 lc rgb "#FF0000",\
	"data/fk/datak-94.dat" u 1:2 with line lw 2 lc rgb "#000000",\
	"data/fk/datak-94.dat" u 1:3 with line lw 2 lc rgb "#FF0000",\
	"data/fk/datak-95.dat" u 1:2 with line lw 2 lc rgb "#000000",\
	"data/fk/datak-95.dat" u 1:3 with line lw 2 lc rgb "#FF0000",\
	"data/fk/datak-96.dat" u 1:2 with line lw 2 lc rgb "#000000",\
	"data/fk/datak-96.dat" u 1:3 with line lw 2 lc rgb "#FF0000",\
	"data/fk/datak-97.dat" u 1:2 with line lw 2 lc rgb "#000000",\
	"data/fk/datak-97.dat" u 1:3 with line lw 2 lc rgb "#FF0000",\
	"data/fk/datak-98.dat" u 1:2 with line lw 2 lc rgb "#000000",\
	"data/fk/datak-98.dat" u 1:3 with line lw 2 lc rgb "#FF0000",\
	"data/fk/datak-99.dat" u 1:2 with line lw 2 lc rgb "#000000",\
	"data/fk/datak-99.dat" u 1:3 with line lw 2 lc rgb "#FF0000",\
	"data/fk/datak-100.dat" u 1:2 with line lw 2 lc rgb "#000000",\
	"data/fk/datak-100.dat" u 1:3 with line lw 2 lc rgb "#FF0000"

set output 