t	x	y	z
4.0	-7.144	-8.442	23.248	
4.05	-7.931	-9.739	23.557	
4.1	-8.896	-10.875	24.698	
4.15	-9.821	-11.441	26.55	
4.2	-10.413	-11.072	28.629	
4.25	-10.42	-9.771	30.187	
4.3	-9.799	-8.047	30.65	
4.35	-8.777	-6.565	29.983	
4.4	-7.702	-5.71	28.579	
4.45	-6.858	-5.519	26.898	
4.5	-6.39	-5.867	25.284	
4.55	-6.335	-6.634	23.972	
4.6	-6.677	-7.729	23.155	
4.65	-7.367	-9.051	23.02	
4.7	-8.322	-10.401	23.729	
4.75	-9.375	-11.414	25.321	
4.8	-10.254	-11.619	27.512	
4.85	-10.638	-10.734	29.611	
4.9	-10.327	-9.023	30.801	
4.95	-9.417	-7.203	30.703	
5.0	-8.246	-5.903	29.552	
