t	x	y	z
4.0	-6.877	-7.078	25.034	
4.05	-7.118	-7.874	24.348	
4.1	-7.619	-8.846	24.189	
4.15	-8.313	-9.821	24.658	
4.2	-9.074	-10.543	25.748	
4.25	-9.712	-10.721	27.247	
4.3	-10.018	-10.19	28.717	
4.35	-9.864	-9.086	29.645	
4.4	-9.285	-7.818	29.735	
4.45	-8.479	-6.809	29.048	
4.5	-7.693	-6.283	27.877	
4.55	-7.117	-6.258	26.548	
4.6	-6.852	-6.659	25.328	
4.65	-6.924	-7.394	24.418	
4.7	-7.309	-8.364	23.987	
4.75	-7.952	-9.432	24.174	
4.8	-8.743	-10.371	25.042	
4.85	-9.51	-10.871	26.489	
4.9	-10.026	-10.657	28.151	
4.95	-10.092	-9.709	29.472	
5.0	-9.659	-8.362	29.985	
