t	x	y	z
7.0	-6.511	-8.506	23.676	
7.05	-7.522	-9.591	23.7	
7.1	-8.571	-10.662	24.576	
7.15	-9.553	-11.31	26.21	
7.2	-10.239	-11.137	28.195	
7.25	-10.386	-10.044	29.841	
7.3	-9.912	-8.422	30.524	
7.35	-8.99	-6.905	30.093	
7.4	-7.942	-5.937	28.854	
7.45	-7.065	-5.619	27.255	
7.5	-6.531	-5.857	25.656	
7.55	-6.397	-6.528	24.309	
7.6	-6.654	-7.538	23.411	
7.65	-7.262	-8.789	23.142	
7.7	-8.146	-10.107	23.669	
7.75	-9.16	-11.171	25.053	
7.8	-10.059	-11.538	27.088	
7.85	-10.537	-10.886	29.177	
7.9	-10.368	-9.357	30.531	
7.95	-9.587	-7.577	30.679	
8.0	-8.482	-6.199	29.739	
