t	x	y	z
3.0	-10.679	-13.415	26.28	
3.05	-11.662	-12.662	29.951	
3.1	-11.555	-10.107	32.5	
3.15	-10.315	-7.007	32.834	
3.2	-8.49	-4.74	31.28	
3.25	-6.759	-3.72	28.844	
3.3	-5.526	-3.662	26.276	
3.35	-4.895	-4.215	23.936	
3.4	-4.824	-5.201	22.004	
3.45	-5.256	-6.594	20.637	
3.5	-6.156	-8.413	20.057	
3.55	-7.498	-10.58	20.593	
3.6	-9.176	-12.701	22.601	
3.65	-10.865	-13.887	26.114	
3.7	-11.958	-13.078	30.211	
3.75	-11.836	-10.203	33.041	
3.8	-10.444	-6.747	33.346	
3.85	-8.42	-4.296	31.575	
3.9	-6.532	-3.245	28.91	
3.95	-5.206	-3.211	26.16	
4.0	-4.527	-3.78	23.672	
