d	err
0.2	31.152902272081054
0.3	5.815043311880513
0.4	4.958889451411691
0.5	2.372777687577134
0.6	4.463321828572849
0.7	1.2466523754701582
0.8	0.550379719678572
0.9	1.461368777670552
1.0	0.2414835395359291
1.1	0.12948893227116343
1.2	0.06531451393650381
1.3	0.050267846393804716
1.4	0.024392271602614646
1.5	0.012218462835877417
1.6	0.004184681522875989
1.7	0.010565189501128657
1.8	0.01397365286583443
1.9	0.012104323566108764
2.0	0.00013573161272231821
2.1	0.01252430112626446
2.2	0.014914111948523925
2.3	0.021631948434219006
2.4	0.017218614324205864
2.5	8.02565020484969e-06
2.6	0.018694766177384053
2.7	0.01513769209921109
2.8	0.009195007569711837
2.9	0.023993834282962683
3.0	0.013771338740327562
3.1	0.016347002690703643
3.2	0.012065972092971486
3.3	0.002194407698847916
3.4	0.007949363216067772
3.5	0.020336490646180223
3.6	0.02127247552220004
3.7	0.014436268178891778
3.8	0.010265545494377673
3.9	0.017729218905425722
4.0	1.2589812723854183e-09
4.1	0.029127278080084237
4.2	0.006754870634896763
4.3	0.015894525096294854
4.4	0.014613942165220271
4.5	0.013674794386264578
4.6	0.016650901990503144
4.7	0.02158446197440366
4.8	0.013789707903236874
4.9	0.005840959637156716
5.0	1.1661100874787074e-09
5.1	0.005644541261902349
5.2	0.017102878227066836
5.3	0.018140112680556392
5.4	0.011072744465140786
5.5	0.02360224529771948
5.6	0.016845951082806544
5.7	0.019688503058160174
5.8	0.017983026230167152
5.9	0.011451822836615775
6.0	0.01723474161617746
6.1	0.03143558310526513
6.2	0.015851373544569267
6.3	0.021484678378098154
6.4	0.01327323516322983
6.5	0.025336461041051393
6.6	0.013161704530107829
6.7	0.013541977740887584
6.8	0.004255825804859196
6.9	0.030937671284387194
7.0	0.026130299474138103
7.1	0.025258058737140838
7.2	0.028178043942567062
7.3	0.03518521110684363
7.4	0.009214628923824382
7.5	0.013788698388595864
7.6	0.01738965040305856
7.7	0.026927490470505386
7.8	0.012513605087817839
7.9	0.017630627675553134
8.0	7.422687927729088e-10
8.1	0.020998896091312436
8.2	0.03264957490499879
8.3	0.022816657510887
8.4	0.003448366666446911
8.5	0.020983481775037054
8.6	0.015071912424154834
8.7	0.03202132544240035
8.8	0.020209850573400717
8.9	0.015665640490976917
9.0	0.007903577061575243
9.1	0.02826632284132736
9.2	0.019291023653988
9.3	0.014009462842711486
9.4	0.0172144319958343
9.5	0.014205567988372211
9.6	0.01091772898613442
9.7	0.006648098712656596
9.8	0.0029562307255066927
9.9	0.000731704273594828
10.0	5.661259423762588e-10