t	err
0.0	1.0
0.05	1.3273
0.1	2.283
0.15	4.0869
0.2	7.3476
0.25	13.1205
0.3	22.854
0.35	36.9927
0.4	50.1952
0.45	51.6874
0.5	43.256
0.55	35.4689
0.6	31.2333
0.65	29.1742
0.7	28.1937
0.75	27.8912
0.8	28.1376
0.85	28.8243
0.9	29.7649
0.95	30.6882
1.0	15.6538
1.05	15.4198
1.1	14.3072
1.15	12.8257
1.2	12.403
1.25	13.6319
1.3	14.2898
1.35	13.2087
1.4	11.9121
1.45	11.7803
1.5	12.8139
1.55	14.4687
1.6	16.2277
1.65	17.7084
1.7	18.7211
1.75	19.2798
1.8	19.5326
1.85	19.6657
1.9	19.8368
1.95	20.1445
2.0	10.3035
2.05	10.3756
2.1	9.9385
2.15	9.0035
2.2	8.3044
2.25	8.7699
2.3	9.3242
2.35	8.7873
2.4	7.9555
2.45	7.8109
2.5	8.3965
2.55	9.4605
2.6	10.8694
2.65	12.5334
2.7	14.3111
2.75	15.9628
2.8	17.1431
2.85	17.4641
2.9	16.6759
2.95	15.0593
3.0	7.0174
3.05	7.418
3.1	7.9892
3.15	7.8692
3.2	7.1318
3.25	6.4636
3.3	6.4903
3.35	7.2949
3.4	8.4425
3.45	9.3729
3.5	9.6559
3.55	9.1636
3.6	8.2699
3.65	7.8876
3.7	8.4967
3.75	9.1567
3.8	8.9427
3.85	8.0673
3.9	7.3872
3.95	7.5604
4.0	4.2724
4.05	4.8794
4.1	5.199
4.15	5.0296
4.2	4.5635
4.25	4.3167
4.3	4.5736
4.35	4.9695
4.4	5.058
4.45	4.7453
4.5	4.2559
4.55	4.0012
4.6	4.2911
4.65	4.9457
4.7	5.478
4.75	5.5316
4.8	5.1182
4.85	4.6775
4.9	4.726
4.95	5.1534
5.0	2.7108
5.05	2.6456
5.1	2.4242
5.15	2.1817
5.2	2.144
5.25	2.4071
5.3	2.7452
5.35	2.8695
5.4	2.7055
5.45	2.462
5.5	2.4306
5.55	2.6161
5.6	2.7925
5.65	2.8063
5.7	2.636
5.75	2.3679
5.8	2.2017
5.85	2.3437
5.9	2.7068
5.95	2.9683
6.0	1.4616
6.05	1.333
6.1	1.2574
6.15	1.3134
6.2	1.4218
6.25	1.4888
6.3	1.4727
6.35	1.3718
6.4	1.2315
6.45	1.166
6.5	1.2735
6.55	1.4559
6.6	1.5283
6.65	1.4392
6.7	1.3133
6.75	1.3025
6.8	1.4002
6.85	1.5033
6.9	1.5427
6.95	1.4937
7.0	0.6836
7.05	0.6165
7.1	0.6138
7.15	0.6954
7.2	0.7722
7.25	0.7659
7.3	0.6995
7.35	0.6605
7.4	0.6883
7.45	0.7455
7.5	0.7899
7.55	0.8002
7.6	0.7674
7.65	0.698
7.7	0.635
7.75	0.6519
7.8	0.7406
7.85	0.7943
7.9	0.7592
7.95	0.6905
8.0	0.3367
8.05	0.3593
8.1	0.392
8.15	0.418
8.2	0.4276
8.25	0.414
8.3	0.3784
8.35	0.3443
8.4	0.3529
8.45	0.3949
8.5	0.4115
8.55	0.3845
8.6	0.3511
8.65	0.3499
8.7	0.38
8.75	0.4209
8.8	0.4569
8.85	0.4762
8.9	0.4682
8.95	0.4313
9.0	0.196
9.05	0.1993
9.1	0.2188
9.15	0.2221
9.2	0.2042
9.25	0.1873
9.3	0.1894
9.35	0.2091
9.4	0.2366
9.45	0.2639
9.5	0.283
9.55	0.2853
9.6	0.2668
9.65	0.2418
9.7	0.2408
9.75	0.2583
9.8	0.2573
9.85	0.234
9.9	0.2136
9.95	0.2161
10.0	0.2415
10.05	0.2806
10.1	0.3234
10.15	0.3583
10.2	0.3711
10.25	0.3527
10.3	0.3196
10.35	0.3132
10.4	0.3284
10.45	0.3213
10.5	0.2893
10.55	0.2619
10.6	0.2629
10.65	0.2959
10.7	0.3518
10.75	0.418
10.8	0.477
10.85	0.5057
10.9	0.4871
10.95	0.4421
11.0	0.4288
11.05	0.4409
11.1	0.4238
11.15	0.3778
11.2	0.339
11.25	0.3369
11.3	0.3796
11.35	0.4594
11.4	0.56
11.45	0.6556
11.5	0.709
11.55	0.6902
11.6	0.6276
11.65	0.6045
11.7	0.611
11.75	0.5777
11.8	0.5101
11.85	0.4539
11.9	0.4457
11.95	0.5004
12.0	0.6132
12.05	0.7642
12.1	0.9162
12.15	1.0109
12.2	0.9957
12.25	0.9071
12.3	0.8668
12.35	0.8629
12.4	0.8048
12.45	0.7045
12.5	0.6214
12.55	0.6009
12.6	0.6676
12.65	0.8236
12.7	1.0471
12.75	1.288
12.8	1.4577
12.85	1.4636
12.9	1.339
12.95	1.2641
13.0	1.2415
13.05	1.1468
13.1	0.9966
13.15	0.8693
13.2	0.8225
13.25	0.8934
13.3	1.0985
13.35	1.4212
13.4	1.8022
13.45	2.1169
13.5	2.2015
13.55	2.0406
13.6	1.8927
13.65	1.8351
13.7	1.6895
13.75	1.46
13.8	1.2555
13.85	1.1516
13.9	1.1994
13.95	1.4401
14.0	1.88
14.05	2.4684
14.1	3.0587
14.15	3.3861
14.2	3.2672
14.25	2.9772
14.3	2.8343
14.35	2.6248
14.4	2.2681
14.45	1.9178
14.5	1.6907
14.55	1.6478
14.6	1.8569
14.65	2.3762
14.7	3.2068
14.75	4.2444
14.8	5.1796
14.85	5.5203
14.9	5.1504
14.95	4.7312
15.0	4.4327
15.05	3.9014
15.1	3.258
15.15	2.747
15.2	2.4661
15.25	2.4706
15.3	2.869
15.35	3.7751
15.4	5.2366
15.45	7.1454
15.5	9.0156
15.55	9.9082
15.6	9.3862
15.65	8.556
15.7	7.9105
15.75	6.8477
15.8	5.5973
15.85	4.6196
15.9	4.0424
15.95	3.8662
16.0	4.2044
16.05	5.2884
16.1	7.3599
16.15	10.601
16.2	14.9087
16.25	19.2975
16.3	21.6636
16.35	20.8498
16.4	19.0635
16.45	18.127
16.5	16.3159
16.55	13.299
16.6	10.538
16.65	8.7377
16.7	7.7492
16.75	7.3819
16.8	7.7442
16.85	9.2115
16.9	12.3116
16.95	17.6809
17.0	25.9485
17.05	36.8529
17.1	46.7298
17.15	47.3011
17.2	35.8794
17.25	22.9369
17.3	14.3919
17.35	8.9346
17.4	5.9965
17.45	5.2102
17.5	5.7685
17.55	7.2431
17.6	9.7457
17.65	13.6122
17.7	19.1736
17.75	26.3232
17.8	33.6713
17.85	38.234
17.9	37.7487
17.95	33.7111
18.0	30.044
18.05	27.9742
18.1	24.464
18.15	19.1468
18.2	14.4391
18.25	11.3161
18.3	9.3495
18.35	8.0501
18.4	7.4377
18.45	8.1466
18.5	10.8227
18.55	14.8661
18.6	18.0402
18.65	18.2406
18.7	16.7403
18.75	15.7716
18.8	14.6124
18.85	12.61
18.9	10.4612
18.95	8.7998
19.0	7.7628
19.05	7.342
19.1	7.6793
19.15	9.1267
19.2	12.1844
19.25	17.4709
19.3	25.6069
19.35	36.3607
19.4	46.2231
19.45	47.1641
19.5	36.2524
19.55	23.4524
19.6	14.8941
19.65	9.3592
19.7	6.2548
19.75	5.26
19.8	5.632
19.85	6.9365
19.9	9.2616
19.95	12.9358