sig	seuil
10.0	1.3466575968505246
5.623413251903491	0.9685247414079711
3.1622776601683795	0.6273659531295687
1.7782794100389228	0.31425251000382154
1.0	0.18429666083076943
0.5623413251903491	0.11507810853491758
0.31622776601683794	0.07042182999673968
0.1778279410038923	0.03613057948714529
0.1	0.020601627851135507
0.05623413251903491	0.013538967245292816
0.03162277660168379	0.01286083655730343
0.01778279410038923	0.010265036365877998
0.01	0.01064873892137526
0.005623413251903491	0.008698810778904307
0.0031622776601683794	0.007660406364307339
0.0017782794100389228	0.006631295789498448
0.001	0.006133522643933759
0.0005623413251903491	0.005371628555859813
0.00017782794100389227	0.004453831965795812
0.0001	0.004715226945106196
5.623413251903491e-05	0.0040078998694771115
3.1622776601683795e-05	0.003434438992299721
1.778279410038923e-05	0.0032991537163310175
1e-05	0.003090367623319496
5.623413251903491e-06	0.0026416308800977593
3.162277660168379e-06	0.0025430955412648324
1.778279410038923e-06	0.0024218390309991462
5.62341325190349e-07	0.002127290264668296
3.162277660168379e-07	0.0018464471502336627
1.7782794100389227e-07	0.0017435334406875145
1e-07	0.0014939418878325754
5.6234132519034905e-08	0.0013560622394612988
3.162277660168379e-08	0.0013931361646946187
1.7782794100389228e-08	0.0012075548836724568
1e-08	0.0011210291695784292
5.623413251903491e-09	0.0010580276881131825