sig	seuil
10.0	3.994132887006589
5.623413251903491	1.8037119648518212
3.1622776601683795	0.9002187859890183
1.7782794100389228	0.49949304953409646
1.0	0.2898270430256704
0.5623413251903491	0.18572726880381576
0.31622776601683794	0.08307203651043393
0.1778279410038923	0.07233858610429436
0.1	0.043023338810386925
0.05623413251903491	0.02364334870186441
0.03162277660168379	0.013777656179152198
0.01778279410038923	0.012637655893953456
0.01	0.008477633657513759
0.005623413251903491	0.010145073572728388
0.0031622776601683794	0.007473721133140339
0.0017782794100389228	0.007153808403488626
0.001	0.007139961567322214
0.0005623413251903491	0.0060108496365657805
0.00031622776601683794	0.005584039718478578
0.00017782794100389227	0.0051584779867821975
0.0001	0.004765461699159428
5.623413251903491e-05	0.004223543323750578
3.1622776601683795e-05	0.003962944946554662
1.778279410038923e-05	0.0035677158782150297
1e-05	0.0033806431633535863
5.623413251903491e-06	0.002942754257552068
3.162277660168379e-06	0.002698171940557609
1.778279410038923e-06	0.002650856225214408
1e-06	0.002469555885801415
5.62341325190349e-07	0.002337702790580388
3.162277660168379e-07	0.0017871591197632583
1.7782794100389227e-07	0.00193998929469749
1e-07	0.0017289741605990957
5.6234132519034905e-08	0.0016194516406611754
3.162277660168379e-08	0.0013903567924198068
1.7782794100389228e-08	0.0012206379162493092
1e-08	0.0011603964992584032
5.623413251903491e-09	0.0011162868566251282