eps	x	y
0.001	0.170906	0.18667
0.0001	0.33127399999999996	0.347112
1e-05	0.49118	0.506976
1e-06	0.650722	0.666488
1e-07	0.8100259999999999	0.825776
1e-08	0.9691759999999999	0.984914
1e-09	1.128228	1.143956
1e-10	1.287212	1.3029359999999999
1e-11	1.446154	1.461874
1e-12	1.6050659999999999	1.6207859999999998
1e-13	1.763962	1.77968
1e-14	1.9228459999999998	1.938562
1e-15	2.08172	2.097436
1e-16	2.24059	2.256306
1e-17	2.399458	2.415172