t	x	y	z
0.0	0	-1	0	
0.04	-0.34	-1.1	0.01	
0.08	-0.65	-1.44	0.03	
0.12	-1.0	-2.03	0.08	
0.16	-1.49	-2.91	0.19	
0.2	-2.17	-4.19	0.42	
0.24	-3.14	-6.02	0.89	
0.28	-4.52	-8.56	1.85	
0.32	-6.41	-11.89	3.79	
0.36	-8.89	-15.74	7.44	
0.4	-11.76	-18.99	13.59	
0.44	-14.33	-19.36	21.95	
0.48	-15.35	-14.99	29.72	
0.52	-13.94	-7.51	33.09	
0.56	-10.61	-1.05	31.68	
0.6	-6.77	2.43	28.2	
0.64	-3.48	3.64	24.75	
0.68	-1.09	3.8	21.94	
0.72	0.5	3.67	19.69	
0.76	1.53	3.59	17.84	
0.8	2.22	3.67	16.3	
0.84	2.74	3.96	15.01	
0.88	3.22	4.45	13.96	
0.92	3.75	5.16	13.19	
0.96	4.37	6.08	12.72	
1.0	5.13	7.21	12.63	
1.04	6.04	8.5	13.02	
1.08	7.09	9.85	13.99	
1.12	8.21	11.03	15.62	
1.16	9.28	11.72	17.85	
1.2	10.09	11.59	20.38	
1.24	10.42	10.5	22.66	
1.28	10.14	8.68	24.14	
1.32	9.3	6.65	24.52	
1.36	8.11	4.91	23.94	
1.4	6.83	3.73	22.73	
1.44	5.68	3.09	21.23	
1.48	4.78	2.88	19.66	
1.52	4.16	2.95	18.16	
1.56	3.81	3.23	16.79	
1.6	3.69	3.66	15.58	
1.64	3.78	4.24	14.56	
1.68	4.06	4.98	13.77	
1.72	4.51	5.87	13.25	
1.76	5.14	6.94	13.09	
1.8	5.94	8.15	13.35	
1.84	6.89	9.41	14.14	
1.88	7.93	10.55	15.53	
1.92	8.94	11.3	17.48	
1.96	9.75	11.35	19.77	
2.0	10.16	10.56	21.95	
2.04	10.04	9.03	23.51	
2.08	9.38	7.18	24.13	
2.12	8.35	5.49	23.81	
2.16	7.18	4.25	22.83	
2.2	6.07	3.52	21.48	
2.24	5.17	3.21	20.02	
2.28	4.52	3.22	18.57	
2.32	4.12	3.45	17.24	
2.36	3.97	3.85	16.05	
2.4	4.02	4.39	15.04	
2.44	4.26	5.09	14.26	
2.48	4.68	5.94	13.75	
2.52	5.27	6.95	13.58	
2.56	6.02	8.08	13.81	
2.6	6.9	9.24	14.54	
2.64	7.86	10.28	15.82	
2.68	8.79	10.96	17.6	
2.72	9.54	11.02	19.67	
2.76	9.92	10.31	21.66	
2.8	9.83	8.96	23.1	
2.84	9.25	7.3	23.72	
2.88	8.33	5.75	23.49	
2.92	7.26	4.57	22.63	
2.96	6.23	3.85	21.4	
3.0	5.38	3.53	20.04	
3.04	4.76	3.52	18.69	
3.08	4.39	3.73	17.42	
3.12	4.23	4.12	16.29	
3.16	4.29	4.65	15.35	
3.2	4.52	5.34	14.63	
3.24	4.93	6.17	14.18	
3.28	5.51	7.13	14.06	
3.32	6.23	8.19	14.35	
3.36	7.06	9.25	15.1	
3.4	7.95	10.16	16.35	
3.44	8.78	10.68	18.03	
3.48	9.42	10.63	19.92	
3.52	9.71	9.9	21.66	
3.56	9.56	8.63	22.87	
3.6	8.99	7.14	23.34	
3.64	8.13	5.76	23.07	
3.68	7.16	4.72	22.25	
3.72	6.23	4.09	21.1	
3.76	5.47	3.82	19.84	
3.8	4.92	3.83	18.58	
3.84	4.6	4.06	17.41	
3.88	4.48	4.45	16.37	
3.92	4.57	5.0	15.52	
3.96	4.83	5.69	14.9	
4.0	5.25	6.51	14.56	
4.04	5.83	7.44	14.55	
4.08	6.53	8.43	14.94	
4.12	7.32	9.36	15.78	
4.16	8.13	10.09	17.05	
4.2	8.85	10.41	18.65	
4.24	9.34	10.18	20.34	
4.28	9.49	9.37	21.8	
4.32	9.24	8.15	22.72	
4.36	8.65	6.81	22.96	
4.4	7.83	5.63	22.58	
4.44	6.94	4.78	21.74	
4.48	6.13	4.28	20.65	
4.52	5.48	4.09	19.48	
4.56	5.03	4.16	18.32	
4.6	4.78	4.42	17.26	
4.64	4.73	4.84	16.35	
4.68	4.86	5.41	15.62	
4.72	5.16	6.11	15.13	
4.76	5.62	6.92	14.94	
4.8	6.2	7.81	15.08	
4.84	6.89	8.71	15.61	
4.88	7.63	9.49	16.55	
4.92	8.35	10.0	17.85	
4.96	8.92	10.08	19.35	
5.0	9.24	9.65	20.82	
5.04	9.23	8.75	21.95	
5.08	8.87	7.59	22.55	
5.12	8.24	6.42	22.54	
5.16	7.46	5.46	22.02	
5.2	6.68	4.79	21.16	
5.24	5.99	4.44	20.12	
5.28	5.46	4.36	19.03	
5.32	5.12	4.5	17.99	
5.36	4.96	4.82	17.05	
5.4	4.99	5.28	16.28	
5.44	5.19	5.87	15.71	
5.48	5.54	6.58	15.38	
5.52	6.02	7.38	15.36	
5.56	6.61	8.21	15.67	
5.6	7.28	8.98	16.36	
5.64	7.95	9.56	17.39	
5.68	8.54	9.82	18.68	
5.72	8.94	9.65	20.04	
5.76	9.08	9.04	21.23	
5.8	8.91	8.1	22.02	
5.84	8.45	7.03	22.28	
5.88	7.81	6.05	22.04	
5.92	7.09	5.3	21.41	
5.96	6.41	4.83	20.53	
6.0	5.85	4.63	19.55	
6.04	5.45	4.66	18.56	
6.08	5.22	4.88	17.64	
6.12	5.17	5.25	16.85	
6.16	5.28	5.75	16.23	
6.2	5.54	6.37	15.83	
6.24	5.94	7.08	15.69	
6.28	6.45	7.83	15.86	
6.32	7.03	8.56	16.35	
6.36	7.65	9.16	17.18	
6.4	8.22	9.51	18.26	
6.44	8.66	9.51	19.48	
6.48	8.88	9.12	20.62	
6.52	8.84	8.38	21.49	
6.56	8.52	7.45	21.93	
6.6	8.01	6.53	21.9	
6.64	7.38	5.75	21.47	
6.68	6.74	5.21	20.76	
6.72	6.18	4.92	19.89	
6.76	5.75	4.86	18.98	
6.8	5.47	4.99	18.1	
6.84	5.36	5.28	17.32	
6.88	5.41	5.71	16.69	
6.92	5.6	6.25	16.25	
6.96	5.92	6.88	16.04	
7.0	6.36	7.56	16.1	
7.04	6.87	8.24	16.46	
7.08	7.43	8.82	17.11	
7.12	7.96	9.21	18.03	
7.16	8.4	9.31	19.09	
7.2	8.67	9.07	20.15	
7.24	8.71	8.51	21.02	
7.28	8.51	7.72	21.56	
7.32	8.1	6.88	21.68	
7.36	7.56	6.13	21.41	
7.4	6.98	5.56	20.85	
7.44	6.45	5.21	20.11	
7.48	6.01	5.08	19.28	
7.52	5.71	5.14	18.46	
7.56	5.56	5.36	17.71	
7.6	5.55	5.72	17.08	
7.64	5.69	6.19	16.62	
7.68	5.95	6.75	16.37	
7.72	6.32	7.37	16.35	
7.76	6.78	7.99	16.61	
7.8	7.28	8.54	17.14	
7.84	7.77	8.94	17.91	
7.88	8.19	9.1	18.84	
7.92	8.47	8.96	19.8	
7.96	8.57	8.53	20.64	
8.0	8.44	7.88	21.2	
8.04	8.13	7.13	21.42	
8.08	7.67	6.43	21.28	
8.12	7.16	5.86	20.85	
8.16	6.66	5.48	20.22	
8.2	6.23	5.3	19.49	
8.24	5.92	5.3	18.73	
8.28	5.74	5.47	18.02	
8.32	5.7	5.77	17.41	
8.36	5.79	6.18	16.95	
8.4	6.0	6.68	16.67	
8.44	6.32	7.23	16.61	
8.48	6.72	7.79	16.79	
8.52	7.17	8.31	17.22	
8.56	7.62	8.7	17.87	
8.6	8.01	8.89	18.68	
8.64	8.3	8.82	19.54	
8.68	8.42	8.5	20.32	
8.72	8.36	7.96	20.89	
8.76	8.11	7.3	21.16	
8.8	7.73	6.65	21.12	
8.84	7.27	6.11	20.79	
8.88	6.82	5.72	20.26	
8.92	6.41	5.51	19.62	
8.96	6.1	5.47	18.93	
9.0	5.91	5.59	18.27	
9.04	5.84	5.83	17.69	
9.08	5.9	6.19	17.23	
9.12	6.07	6.64	16.95	
9.16	6.34	7.13	16.85	
9.2	6.7	7.65	16.98	
9.24	7.09	8.12	17.32	
9.28	7.5	8.49	17.88	
9.32	7.87	8.69	18.58	
9.36	8.15	8.68	19.35	
9.4	8.28	8.43	20.07	
9.44	8.26	7.98	20.62	
9.48	8.07	7.41	20.92	
9.52	7.75	6.83	20.94	
9.56	7.35	6.31	20.7	
9.6	6.93	5.92	20.26	
9.64	6.56	5.7	19.69	
9.68	6.26	5.63	19.07	
9.72	6.06	5.71	18.46	
9.76	5.98	5.91	17.91	
9.8	6.01	6.23	17.48	
9.84	6.15	6.62	17.19	
9.88	6.38	7.07	17.08	
9.92	6.69	7.53	17.16	
9.96	7.05	7.97	17.45	
10.0	7.41	8.32	17.92	
10.04	7.75	8.52	18.53	
10.08	8.01	8.53	19.22	
10.12	8.16	8.34	19.87	
10.16	8.15	7.97	20.39	
10.2	8.01	7.47	20.7	
10.24	7.74	6.95	20.76	
10.28	7.39	6.47	20.58	
10.32	7.02	6.1	20.21	
10.36	6.67	5.87	19.72	
10.4	6.39	5.78	19.16	
10.44	6.19	5.83	18.61	
10.48	6.1	6.0	18.1	
10.52	6.11	6.27	17.69	
10.56	6.23	6.62	17.41	
10.6	6.43	7.02	17.28	
10.64	6.7	7.44	17.33	
10.68	7.01	7.84	17.57	
10.72	7.35	8.16	17.98	
10.76	7.65	8.36	18.52	
10.8	7.9	8.39	19.12	
10.84	8.04	8.24	19.71	
10.88	8.06	7.93	20.19	
10.92	7.94	7.51	20.5	
10.96	7.72	7.04	20.58	
11.0	7.42	6.61	20.46	
11.04	7.08	6.26	20.15	
11.08	6.77	6.02	19.72	
11.12	6.5	5.92	19.23	
11.16	6.31	5.95	18.72	
11.2	6.21	6.09	18.25	
11.24	6.21	6.32	17.87	
11.28	6.3	6.64	17.6	
11.32	6.47	7.0	17.47	
11.36	6.71	7.38	17.5	
11.4	7.0	7.74	17.69	
11.44	7.29	8.03	18.05	
11.48	7.57	8.22	18.52	
11.52	7.8	8.26	19.05	
11.56	7.94	8.15	19.58	
11.6	7.96	7.89	20.03	
11.64	7.88	7.52	20.32	
11.68	7.69	7.11	20.42	
11.72	7.42	6.71	20.34	
11.76	7.13	6.38	20.08	
11.8	6.84	6.16	19.71	
11.84	6.59	6.05	19.27	
11.88	6.41	6.06	18.81	
11.92	6.32	6.17	18.38	
11.96	6.3	6.38	18.02	
12.0	6.37	6.66	17.76	
12.04	6.52	6.98	17.63	
12.08	6.73	7.32	17.65	
12.12	6.99	7.65	17.81	
12.16	7.25	7.92	18.12	
12.2	7.51	8.1	18.53	
12.24	7.71	8.15	19.01	
12.28	7.85	8.06	19.48	
12.32	7.88	7.84	19.89	
12.36	7.81	7.52	20.16	
12.4	7.65	7.15	20.27	
12.44	7.42	6.79	20.22	
12.48	7.16	6.49	20.01	
12.52	6.9	6.28	19.68	
12.56	6.67	6.17	19.29	
12.6	6.5	6.16	18.88	
12.64	6.41	6.26	18.48	
12.68	6.39	6.44	18.15	
12.72	6.44	6.68	17.91	
12.76	6.57	6.97	17.78	
12.8	6.76	7.28	17.78	
12.84	6.98	7.58	17.92	
12.88	7.22	7.82	18.19	
12.92	7.45	7.99	18.55	
12.96	7.64	8.04	18.97	
13.0	7.76	7.97	19.4	
13.04	7.8	7.78	19.77	
13.08	7.75	7.51	20.02	
13.12	7.61	7.18	20.14	
13.16	7.41	6.86	20.1	
13.2	7.18	6.59	19.93	
13.24	6.95	6.38	19.65	
13.28	6.74	6.27	19.3	
13.32	6.58	6.26	18.93	
13.36	6.49	6.34	18.57	
13.4	6.46	6.49	18.26	
13.44	6.51	6.71	18.04	
13.48	6.62	6.97	17.91	
13.52	6.78	7.25	17.91	
13.56	6.98	7.51	18.03	
13.6	7.2	7.74	18.26	
13.64	7.41	7.89	18.58	
13.68	7.58	7.94	18.95	
13.72	7.69	7.89	19.33	
13.76	7.73	7.73	19.66	
13.8	7.69	7.49	19.9	
13.84	7.57	7.2	20.02	
13.88	7.4	6.91	20.0	
13.92	7.19	6.66	19.85	
13.96	6.98	6.47	19.61	
14.0	6.79	6.37	19.3	
14.04	6.65	6.35	18.96	
14.08	6.56	6.41	18.64	
14.12	6.53	6.54	18.36	
14.16	6.57	6.74	18.15	
14.2	6.66	6.97	18.03	
14.24	6.81	7.22	18.02	
14.28	6.99	7.46	18.12	
14.32	7.18	7.66	18.32	
14.36	7.37	7.8	18.6	
14.4	7.52	7.86	18.94	
14.44	7.63	7.81	19.28	
14.48	7.67	7.68	19.58	
14.52	7.63	7.47	19.8	
14.56	7.54	7.21	19.91	
14.6	7.38	6.96	19.9	
14.64	7.2	6.73	19.78	
14.68	7.01	6.55	19.57	
14.72	6.84	6.45	19.29	
14.76	6.71	6.43	18.99	
14.8	6.62	6.48	18.7	
14.84	6.59	6.59	18.44	
14.88	6.62	6.76	18.25	
14.92	6.7	6.97	18.14	
14.96	6.83	7.2	18.12	
15.0	6.99	7.41	18.21	
15.04	7.16	7.6	18.38	
15.08	7.33	7.73	18.63	
15.12	7.47	7.78	18.93	
15.16	7.57	7.74	19.23	
15.2	7.61	7.63	19.5	
15.24	7.58	7.44	19.7	
15.28	7.5	7.22	19.81	
15.32	7.37	6.99	19.81	
15.36	7.21	6.78	19.71	
15.4	7.04	6.62	19.52	
15.44	6.88	6.53	19.28	
15.48	6.76	6.5	19.01	
15.52	6.68	6.54	18.75	
15.56	6.65	6.64	18.52	
15.6	6.67	6.79	18.34	
15.64	6.74	6.98	18.23	
15.68	6.86	7.18	18.21	
15.72	7.0	7.38	18.29	
15.76	7.15	7.54	18.44	
15.8	7.3	7.66	18.66	
15.84	7.43	7.71	18.92	
15.88	7.52	7.68	19.19	
15.92	7.56	7.58	19.44	
15.96	7.54	7.42	19.62	
16.0	7.47	7.22	19.72	
16.04	7.35	7.02	19.73	
16.08	7.21	6.83	19.64	
16.12	7.06	6.68	19.48	
16.16	6.92	6.59	19.27	
16.2	6.8	6.56	19.03	
16.24	6.73	6.59	18.79	
16.28	6.7	6.68	18.58	
16.32	6.72	6.82	18.41	
16.36	6.78	6.98	18.32	
16.4	6.88	7.17	18.3	
16.44	7.0	7.34	18.36	
16.48	7.14	7.49	18.49	
16.52	7.28	7.6	18.69	
16.56	7.39	7.65	18.92	
16.6	7.48	7.62	19.16	
16.64	7.51	7.54	19.38	
16.68	7.5	7.4	19.55	
16.72	7.43	7.22	19.64	
16.76	7.33	7.04	19.65	
16.8	7.21	6.87	19.58	
16.84	7.07	6.74	19.44	
16.88	6.94	6.65	19.25	
16.92	6.84	6.62	19.04	
16.96	6.77	6.65	18.82	
17.0	6.74	6.72	18.63	
17.04	6.76	6.84	18.48	
17.08	6.81	6.99	18.39	
17.12	6.9	7.15	18.37	
17.16	7.01	7.31	18.42	
17.2	7.14	7.45	18.54	
17.24	7.26	7.55	18.71	
17.28	7.36	7.59	18.92	
17.32	7.44	7.57	19.14	
17.36	7.47	7.5	19.33	
17.4	7.46	7.38	19.48	
17.44	7.41	7.22	19.57	
17.48	7.32	7.06	19.59	
17.52	7.2	6.91	19.53	
17.56	7.08	6.78	19.41	
17.6	6.97	6.7	19.24	
17.64	6.88	6.67	19.05	
17.68	6.81	6.69	18.85	
17.72	6.78	6.76	18.68	
17.76	6.79	6.87	18.54	
17.8	6.84	7.0	18.46	
17.84	6.92	7.14	18.44	
17.88	7.02	7.29	18.48	
17.92	7.13	7.41	18.58	
17.96	7.24	7.5	18.74	
18.0	7.33	7.54	18.92	
18.04	7.4	7.53	19.11	
18.08	7.43	7.46	19.29	
18.12	7.42	7.36	19.43	
18.16	7.38	7.22	19.51	
18.2	7.3	7.07	19.53	
18.24	7.2	6.94	19.48	
18.28	7.09	6.82	19.37	
18.32	6.99	6.75	19.22	
18.36	6.9	6.72	19.05	
18.4	6.85	6.74	18.88	
18.44	6.82	6.79	18.72	
18.48	6.83	6.89	18.6	
18.52	6.87	7.01	18.52	
18.56	6.94	7.14	18.5	
18.6	7.02	7.26	18.53	
18.64	7.12	7.38	18.62	
18.68	7.22	7.46	18.76	
18.72	7.31	7.49	18.92	
18.76	7.37	7.49	19.09	
18.8	7.4	7.43	19.25	
18.84	7.39	7.34	19.38	
18.88	7.35	7.22	19.45	
18.92	7.29	7.09	19.47	
18.96	7.2	6.96	19.43	
19.0	7.1	6.86	19.34	
19.04	7.01	6.79	19.21	
19.08	6.93	6.76	19.05	
19.12	6.88	6.77	18.9	
19.16	6.85	6.83	18.76	
19.2	6.86	6.91	18.64	
19.24	6.89	7.01	18.57	
19.28	6.95	7.13	18.55	
19.32	7.03	7.25	18.58	
19.36	7.12	7.35	18.66	
19.4	7.21	7.42	18.78	
19.44	7.28	7.45	18.92	
19.48	7.34	7.45	19.08	
19.52	7.37	7.4	19.22	
19.56	7.37	7.32	19.33	
19.6	7.33	7.21	19.4	
19.64	7.27	7.09	19.42	
19.68	7.19	6.98	19.39	
19.72	7.11	6.89	19.31	
19.76	7.02	6.83	19.19	
19.8	6.95	6.8	19.06	
19.84	6.9	6.81	18.92	
19.88	6.88	6.85	18.79	
19.92	6.88	6.93	18.68	
19.96	6.91	7.02	18.62	
20.0	6.97	7.13	18.6	
