N	err
500	14.904816514705082	
1000	17.965020490773643	
2000	3.796406316997188	
5000	23.272737870520245	
10000	14.110049533918072	
20000	7.4494124806263144	
50000	0.5563335921148997	
100000	0.04039664198393352	
200000	0.002612489601394501	
500000	1.452502969409543e-05	
1000000	9.426117570202606e-05	
2000000	9.270361719772495e-05	
5000000	9.606653518548104e-05	
10000000	8.06286084735671e-05	
20000000	9.486797639448164e-05	
50000000	0.0002492950264674286	