N	err
201	32.67283085826665	
501	1.5713964127294286	
1001	0.4124121211375071	
2001	0.11292542326740669	
5001	0.01910104575806641	
10001	0.004864012541630169	
20001	0.0012295858818934485	
50001	0.00019821800610884564	
100001	4.966533977470565e-05	
200001	1.2417147802074932e-05	
500001	1.9715223978633336e-06	
1000001	4.780651689579696e-07	
2000001	1.0458991046777235e-07	