t	x	y	z
0.0	0	1	0	
0.004	0.039	0.996	0.0	
0.008	0.077	0.992	0.0	
0.012	0.112	0.988	0.001	
0.016	0.147	0.984	0.001	
0.02	0.179	0.98	0.002	
0.024	0.211	0.977	0.003	
0.028	0.241	0.973	0.003	
0.032	0.269	0.969	0.004	
0.036	0.297	0.965	0.005	
0.04	0.323	0.961	0.007	
0.044	0.348	0.958	0.008	
0.048	0.372	0.954	0.009	
0.052	0.394	0.95	0.01	
0.056	0.416	0.947	0.012	
0.06	0.437	0.943	0.013	
0.064	0.457	0.939	0.015	
0.068	0.476	0.936	0.016	
0.072	0.493	0.932	0.018	
0.076	0.511	0.929	0.02	
0.08	0.527	0.925	0.021	
0.084	0.542	0.922	0.023	
0.088	0.557	0.918	0.025	
0.092	0.571	0.915	0.027	
0.096	0.585	0.911	0.028	
0.1	0.597	0.908	0.03	
0.104	0.61	0.904	0.032	
0.108	0.621	0.901	0.034	
0.112	0.632	0.897	0.036	
0.116	0.642	0.894	0.038	
0.12	0.652	0.891	0.04	
0.124	0.661	0.887	0.042	
0.128	0.67	0.884	0.044	
0.132	0.678	0.88	0.045	
0.136	0.686	0.877	0.047	
0.14	0.694	0.874	0.049	
0.144	0.701	0.87	0.051	
0.148	0.707	0.867	0.053	
0.152	0.714	0.864	0.055	
0.156	0.719	0.86	0.057	
0.16	0.725	0.857	0.059	
0.164	0.73	0.854	0.061	
0.168	0.735	0.85	0.062	
0.172	0.739	0.847	0.064	
0.176	0.743	0.844	0.066	
0.18	0.747	0.841	0.068	
0.184	0.751	0.837	0.07	
0.188	0.754	0.834	0.071	
0.192	0.757	0.831	0.073	
0.196	0.76	0.828	0.075	
0.2	0.763	0.824	0.077	
0.204	0.765	0.821	0.078	
0.208	0.767	0.818	0.08	
0.212	0.769	0.815	0.082	
0.216	0.771	0.811	0.083	
0.22	0.772	0.808	0.085	
0.224	0.774	0.805	0.086	
0.228	0.775	0.802	0.088	
0.232	0.776	0.799	0.089	
0.236	0.777	0.796	0.091	
0.24	0.777	0.792	0.092	
0.244	0.778	0.789	0.094	
0.248	0.778	0.786	0.095	
0.252	0.779	0.783	0.097	
0.256	0.779	0.78	0.098	
0.26	0.779	0.777	0.1	
0.264	0.778	0.774	0.101	
0.268	0.778	0.771	0.102	
0.272	0.778	0.768	0.103	
0.276	0.777	0.764	0.105	
0.28	0.777	0.761	0.106	
0.284	0.776	0.758	0.107	
0.288	0.775	0.755	0.108	
0.292	0.775	0.752	0.11	
0.296	0.774	0.749	0.111	
0.3	0.773	0.746	0.112	
0.304	0.772	0.743	0.113	
0.308	0.77	0.74	0.114	
0.312	0.769	0.737	0.115	
0.316	0.768	0.734	0.116	
0.32	0.766	0.731	0.117	
0.324	0.765	0.728	0.118	
0.328	0.763	0.725	0.119	
0.332	0.762	0.722	0.12	
0.336	0.76	0.719	0.121	
0.34	0.759	0.716	0.122	
0.344	0.757	0.714	0.123	
0.348	0.755	0.711	0.124	
0.352	0.753	0.708	0.124	
0.356	0.752	0.705	0.125	
0.36	0.75	0.702	0.126	
0.364	0.748	0.699	0.127	
0.368	0.746	0.696	0.127	
0.372	0.744	0.693	0.128	
0.376	0.742	0.69	0.129	
0.38	0.74	0.688	0.129	
0.384	0.738	0.685	0.13	
0.388	0.735	0.682	0.131	
0.392	0.733	0.679	0.131	
0.396	0.731	0.676	0.132	
0.4	0.729	0.674	0.132	
0.404	0.727	0.671	0.133	
0.408	0.724	0.668	0.133	
0.412	0.722	0.665	0.134	
0.416	0.72	0.662	0.134	
0.42	0.718	0.66	0.135	
0.424	0.715	0.657	0.135	
0.428	0.713	0.654	0.136	
0.432	0.711	0.652	0.136	
0.436	0.708	0.649	0.137	
0.44	0.706	0.646	0.137	
0.444	0.703	0.643	0.137	
0.448	0.701	0.641	0.138	
0.452	0.699	0.638	0.138	
0.456	0.696	0.635	0.138	
0.46	0.694	0.633	0.139	
0.464	0.691	0.63	0.139	
0.468	0.689	0.628	0.139	
0.472	0.686	0.625	0.139	
0.476	0.684	0.622	0.14	
0.48	0.681	0.62	0.14	
0.484	0.679	0.617	0.14	
0.488	0.677	0.615	0.14	
0.492	0.674	0.612	0.14	
0.496	0.672	0.609	0.14	
0.5	0.669	0.607	0.141	
0.504	0.667	0.604	0.141	
0.508	0.664	0.602	0.141	
0.512	0.662	0.599	0.141	
0.516	0.659	0.597	0.141	
0.52	0.657	0.594	0.141	
0.524	0.654	0.592	0.141	
0.528	0.652	0.589	0.141	
0.532	0.649	0.587	0.141	
0.536	0.647	0.585	0.141	
0.54	0.644	0.582	0.141	
0.544	0.642	0.58	0.141	
0.548	0.639	0.577	0.141	
0.552	0.637	0.575	0.141	
0.556	0.634	0.572	0.141	
0.56	0.632	0.57	0.141	
0.564	0.629	0.568	0.141	
0.568	0.627	0.565	0.141	
0.572	0.624	0.563	0.141	
0.576	0.622	0.561	0.141	
0.58	0.619	0.558	0.141	
0.584	0.617	0.556	0.14	
0.588	0.615	0.554	0.14	
0.592	0.612	0.551	0.14	
0.596	0.61	0.549	0.14	
0.6	0.607	0.547	0.14	
0.604	0.605	0.544	0.14	
0.608	0.602	0.542	0.139	
0.612	0.6	0.54	0.139	
0.616	0.598	0.538	0.139	
0.62	0.595	0.535	0.139	
0.624	0.593	0.533	0.139	
0.628	0.59	0.531	0.138	
0.632	0.588	0.529	0.138	
0.636	0.586	0.527	0.138	
0.64	0.583	0.524	0.138	
0.644	0.581	0.522	0.138	
0.648	0.579	0.52	0.137	
0.652	0.576	0.518	0.137	
0.656	0.574	0.516	0.137	
0.66	0.572	0.514	0.136	
0.664	0.569	0.511	0.136	
0.668	0.567	0.509	0.136	
0.672	0.565	0.507	0.136	
0.676	0.562	0.505	0.135	
0.68	0.56	0.503	0.135	
0.684	0.558	0.501	0.135	
0.688	0.556	0.499	0.134	
0.692	0.553	0.497	0.134	
0.696	0.551	0.495	0.134	
0.7	0.549	0.493	0.133	
0.704	0.547	0.491	0.133	
0.708	0.544	0.489	0.133	
0.712	0.542	0.487	0.132	
0.716	0.54	0.485	0.132	
0.72	0.538	0.483	0.132	
0.724	0.535	0.481	0.131	
0.728	0.533	0.479	0.131	
0.732	0.531	0.477	0.13	
0.736	0.529	0.475	0.13	
0.74	0.527	0.473	0.13	
0.744	0.525	0.471	0.129	
0.748	0.522	0.469	0.129	
0.752	0.52	0.467	0.128	
0.756	0.518	0.465	0.128	
0.76	0.516	0.463	0.128	
0.764	0.514	0.461	0.127	
0.768	0.512	0.459	0.127	
0.772	0.51	0.457	0.126	
0.776	0.508	0.455	0.126	
0.78	0.506	0.454	0.126	
0.784	0.503	0.452	0.125	
0.788	0.501	0.45	0.125	
0.792	0.499	0.448	0.124	
0.796	0.497	0.446	0.124	
0.8	0.495	0.444	0.123	
0.804	0.493	0.443	0.123	
0.808	0.491	0.441	0.123	
0.812	0.489	0.439	0.122	
0.816	0.487	0.437	0.122	
0.82	0.485	0.435	0.121	
0.824	0.483	0.434	0.121	
0.828	0.481	0.432	0.12	
0.832	0.479	0.43	0.12	
0.836	0.477	0.428	0.119	
0.84	0.475	0.427	0.119	
0.844	0.473	0.425	0.119	
0.848	0.471	0.423	0.118	
0.852	0.469	0.421	0.118	
0.856	0.468	0.42	0.117	
0.86	0.466	0.418	0.117	
0.864	0.464	0.416	0.116	
0.868	0.462	0.415	0.116	
0.872	0.46	0.413	0.115	
0.876	0.458	0.411	0.115	
0.88	0.456	0.409	0.114	
0.884	0.454	0.408	0.114	
0.888	0.452	0.406	0.113	
0.892	0.451	0.405	0.113	
0.896	0.449	0.403	0.112	
0.9	0.447	0.401	0.112	
0.904	0.445	0.4	0.111	
0.908	0.443	0.398	0.111	
0.912	0.442	0.396	0.111	
0.916	0.44	0.395	0.11	
0.92	0.438	0.393	0.11	
0.924	0.436	0.392	0.109	
0.928	0.434	0.39	0.109	
0.932	0.433	0.388	0.108	
0.936	0.431	0.387	0.108	
0.94	0.429	0.385	0.107	
0.944	0.427	0.384	0.107	
0.948	0.426	0.382	0.106	
0.952	0.424	0.381	0.106	
0.956	0.422	0.379	0.105	
0.96	0.42	0.378	0.105	
0.964	0.419	0.376	0.104	
0.968	0.417	0.375	0.104	
0.972	0.415	0.373	0.103	
0.976	0.414	0.372	0.103	
0.98	0.412	0.37	0.102	
0.984	0.41	0.369	0.102	
0.988	0.409	0.367	0.101	
0.992	0.407	0.366	0.101	
0.996	0.405	0.364	0.1	
1.0	0.404	0.363	0.1	
1.004	0.402	0.361	0.099	
1.008	0.4	0.36	0.099	
1.012	0.399	0.359	0.098	
1.016	0.397	0.357	0.098	
1.02	0.396	0.356	0.098	
1.024	0.394	0.354	0.097	
1.028	0.392	0.353	0.097	
1.032	0.391	0.351	0.096	
1.036	0.389	0.35	0.096	
1.04	0.388	0.349	0.095	
1.044	0.386	0.347	0.095	
1.048	0.385	0.346	0.094	
1.052	0.383	0.345	0.094	
1.056	0.382	0.343	0.093	
1.06	0.38	0.342	0.093	
1.064	0.378	0.34	0.092	
1.068	0.377	0.339	0.092	
1.072	0.375	0.338	0.091	
1.076	0.374	0.336	0.091	
1.08	0.372	0.335	0.09	
1.084	0.371	0.334	0.09	
1.088	0.369	0.332	0.09	
1.092	0.368	0.331	0.089	
1.096	0.367	0.33	0.089	
1.1	0.365	0.329	0.088	
1.104	0.364	0.327	0.088	
1.108	0.362	0.326	0.087	
1.112	0.361	0.325	0.087	
1.116	0.359	0.323	0.086	
1.12	0.358	0.322	0.086	
1.124	0.356	0.321	0.085	
1.128	0.355	0.32	0.085	
1.132	0.354	0.318	0.084	
1.136	0.352	0.317	0.084	
1.14	0.351	0.316	0.084	
1.144	0.349	0.315	0.083	
1.148	0.348	0.313	0.083	
1.152	0.347	0.312	0.082	
1.156	0.345	0.311	0.082	
1.16	0.344	0.31	0.081	
1.164	0.343	0.309	0.081	
1.168	0.341	0.307	0.08	
1.172	0.34	0.306	0.08	
1.176	0.338	0.305	0.08	
1.18	0.337	0.304	0.079	
1.184	0.336	0.303	0.079	
1.188	0.334	0.301	0.078	
1.192	0.333	0.3	0.078	
1.196	0.332	0.299	0.077	
1.2	0.331	0.298	0.077	
1.204	0.329	0.297	0.077	
1.208	0.328	0.296	0.076	
1.212	0.327	0.294	0.076	
1.216	0.325	0.293	0.075	
1.22	0.324	0.292	0.075	
1.224	0.323	0.291	0.074	
1.228	0.321	0.29	0.074	
1.232	0.32	0.289	0.074	
1.236	0.319	0.288	0.073	
1.24	0.318	0.286	0.073	
1.244	0.316	0.285	0.072	
1.248	0.315	0.284	0.072	
1.252	0.314	0.283	0.072	
1.256	0.313	0.282	0.071	
1.26	0.312	0.281	0.071	
1.264	0.31	0.28	0.07	
1.268	0.309	0.279	0.07	
1.272	0.308	0.278	0.07	
1.276	0.307	0.277	0.069	
1.28	0.306	0.276	0.069	
1.284	0.304	0.275	0.068	
1.288	0.303	0.273	0.068	
1.292	0.302	0.272	0.068	
1.296	0.301	0.271	0.067	
1.3	0.3	0.27	0.067	
1.304	0.298	0.269	0.066	
1.308	0.297	0.268	0.066	
1.312	0.296	0.267	0.066	
1.316	0.295	0.266	0.065	
1.32	0.294	0.265	0.065	
1.324	0.293	0.264	0.065	
1.328	0.292	0.263	0.064	
1.332	0.29	0.262	0.064	
1.336	0.289	0.261	0.063	
1.34	0.288	0.26	0.063	
1.344	0.287	0.259	0.063	
1.348	0.286	0.258	0.062	
1.352	0.285	0.257	0.062	
1.356	0.284	0.256	0.062	
1.36	0.283	0.255	0.061	
1.364	0.282	0.254	0.061	
1.368	0.28	0.253	0.06	
1.372	0.279	0.252	0.06	
1.376	0.278	0.251	0.06	
1.38	0.277	0.25	0.059	
1.384	0.276	0.249	0.059	
1.388	0.275	0.248	0.059	
1.392	0.274	0.248	0.058	
1.396	0.273	0.247	0.058	
1.4	0.272	0.246	0.058	
1.404	0.271	0.245	0.057	
1.408	0.27	0.244	0.057	
1.412	0.269	0.243	0.057	
1.416	0.268	0.242	0.056	
1.42	0.267	0.241	0.056	
1.424	0.266	0.24	0.056	
1.428	0.265	0.239	0.055	
1.432	0.264	0.238	0.055	
1.436	0.263	0.237	0.055	
1.44	0.262	0.236	0.054	
1.444	0.261	0.236	0.054	
1.448	0.26	0.235	0.054	
1.452	0.259	0.234	0.053	
1.456	0.258	0.233	0.053	
1.46	0.257	0.232	0.053	
1.464	0.256	0.231	0.052	
1.468	0.255	0.23	0.052	
1.472	0.254	0.229	0.052	
1.476	0.253	0.229	0.051	
1.48	0.252	0.228	0.051	
1.484	0.251	0.227	0.051	
1.488	0.25	0.226	0.05	
1.492	0.249	0.225	0.05	
1.496	0.248	0.224	0.05	
1.5	0.247	0.223	0.049	
1.504	0.246	0.223	0.049	
1.508	0.245	0.222	0.049	
1.512	0.244	0.221	0.049	
1.516	0.243	0.22	0.048	
1.52	0.242	0.219	0.048	
1.524	0.241	0.218	0.048	
1.528	0.24	0.218	0.047	
1.532	0.24	0.217	0.047	
1.536	0.239	0.216	0.047	
1.54	0.238	0.215	0.046	
1.544	0.237	0.214	0.046	
1.548	0.236	0.214	0.046	
1.552	0.235	0.213	0.046	
1.556	0.234	0.212	0.045	
1.56	0.233	0.211	0.045	
1.564	0.232	0.21	0.045	
1.568	0.232	0.21	0.044	
1.572	0.231	0.209	0.044	
1.576	0.23	0.208	0.044	
1.58	0.229	0.207	0.044	
1.584	0.228	0.206	0.043	
1.588	0.227	0.206	0.043	
1.592	0.226	0.205	0.043	
1.596	0.225	0.204	0.043	
1.6	0.225	0.203	0.042	
1.604	0.224	0.203	0.042	
1.608	0.223	0.202	0.042	
1.612	0.222	0.201	0.041	
1.616	0.221	0.2	0.041	
1.62	0.22	0.2	0.041	
1.624	0.22	0.199	0.041	
1.628	0.219	0.198	0.04	
1.632	0.218	0.197	0.04	
1.636	0.217	0.197	0.04	
1.64	0.216	0.196	0.04	
1.644	0.215	0.195	0.039	
1.648	0.215	0.194	0.039	
1.652	0.214	0.194	0.039	
1.656	0.213	0.193	0.039	
1.66	0.212	0.192	0.038	
1.664	0.211	0.192	0.038	
1.668	0.211	0.191	0.038	
1.672	0.21	0.19	0.038	
1.676	0.209	0.189	0.037	
1.68	0.208	0.189	0.037	
1.684	0.208	0.188	0.037	
1.688	0.207	0.187	0.037	
1.692	0.206	0.187	0.036	
1.696	0.205	0.186	0.036	
1.7	0.204	0.185	0.036	
1.704	0.204	0.185	0.036	
1.708	0.203	0.184	0.036	
1.712	0.202	0.183	0.035	
1.716	0.201	0.183	0.035	
1.72	0.201	0.182	0.035	
1.724	0.2	0.181	0.035	
1.728	0.199	0.181	0.034	
1.732	0.198	0.18	0.034	
1.736	0.198	0.179	0.034	
1.74	0.197	0.179	0.034	
1.744	0.196	0.178	0.034	
1.748	0.195	0.177	0.033	
1.752	0.195	0.177	0.033	
1.756	0.194	0.176	0.033	
1.76	0.193	0.175	0.033	
1.764	0.193	0.175	0.032	
1.768	0.192	0.174	0.032	
1.772	0.191	0.173	0.032	
1.776	0.19	0.173	0.032	
1.78	0.19	0.172	0.032	
1.784	0.189	0.171	0.031	
1.788	0.188	0.171	0.031	
1.792	0.188	0.17	0.031	
1.796	0.187	0.169	0.031	
1.8	0.186	0.169	0.031	
1.804	0.186	0.168	0.03	
1.808	0.185	0.168	0.03	
1.812	0.184	0.167	0.03	
1.816	0.183	0.166	0.03	
1.82	0.183	0.166	0.03	
1.824	0.182	0.165	0.029	
1.828	0.181	0.165	0.029	
1.832	0.181	0.164	0.029	
1.836	0.18	0.163	0.029	
1.84	0.179	0.163	0.029	
1.844	0.179	0.162	0.028	
1.848	0.178	0.162	0.028	
1.852	0.177	0.161	0.028	
1.856	0.177	0.16	0.028	
1.86	0.176	0.16	0.028	
1.864	0.175	0.159	0.028	
1.868	0.175	0.159	0.027	
1.872	0.174	0.158	0.027	
1.876	0.174	0.157	0.027	
1.88	0.173	0.157	0.027	
1.884	0.172	0.156	0.027	
1.888	0.172	0.156	0.026	
1.892	0.171	0.155	0.026	
1.896	0.17	0.155	0.026	
1.9	0.17	0.154	0.026	
1.904	0.169	0.153	0.026	
1.908	0.168	0.153	0.026	
1.912	0.168	0.152	0.025	
1.916	0.167	0.152	0.025	
1.92	0.167	0.151	0.025	
1.924	0.166	0.151	0.025	
1.928	0.165	0.15	0.025	
1.932	0.165	0.15	0.025	
1.936	0.164	0.149	0.024	
1.94	0.164	0.148	0.024	
1.944	0.163	0.148	0.024	
1.948	0.162	0.147	0.024	
1.952	0.162	0.147	0.024	
1.956	0.161	0.146	0.024	
1.96	0.161	0.146	0.023	
1.964	0.16	0.145	0.023	
1.968	0.159	0.145	0.023	
1.972	0.159	0.144	0.023	
1.976	0.158	0.144	0.023	
1.98	0.158	0.143	0.023	
1.984	0.157	0.143	0.023	
1.988	0.156	0.142	0.022	
1.992	0.156	0.142	0.022	
1.996	0.155	0.141	0.022	
2.0	0.155	0.141	0.022	
2.004	0.154	0.14	0.022	
2.008	0.154	0.14	0.022	
2.012	0.153	0.139	0.022	
2.016	0.152	0.138	0.021	
2.02	0.152	0.138	0.021	
2.024	0.151	0.137	0.021	
2.028	0.151	0.137	0.021	
2.032	0.15	0.136	0.021	
2.036	0.15	0.136	0.021	
2.04	0.149	0.135	0.021	
2.044	0.149	0.135	0.02	
2.048	0.148	0.135	0.02	
2.052	0.148	0.134	0.02	
2.056	0.147	0.134	0.02	
2.06	0.146	0.133	0.02	
2.064	0.146	0.133	0.02	
2.068	0.145	0.132	0.02	
2.072	0.145	0.132	0.019	
2.076	0.144	0.131	0.019	
2.08	0.144	0.131	0.019	
2.084	0.143	0.13	0.019	
2.088	0.143	0.13	0.019	
2.092	0.142	0.129	0.019	
2.096	0.142	0.129	0.019	
2.1	0.141	0.128	0.019	
2.104	0.141	0.128	0.018	
2.108	0.14	0.127	0.018	
2.112	0.14	0.127	0.018	
2.116	0.139	0.126	0.018	
2.12	0.139	0.126	0.018	
2.124	0.138	0.126	0.018	
2.128	0.138	0.125	0.018	
2.132	0.137	0.125	0.018	
2.136	0.137	0.124	0.017	
2.14	0.136	0.124	0.017	
2.144	0.136	0.123	0.017	
2.148	0.135	0.123	0.017	
2.152	0.135	0.122	0.017	
2.156	0.134	0.122	0.017	
2.16	0.134	0.121	0.017	
2.164	0.133	0.121	0.017	
2.168	0.133	0.121	0.017	
2.172	0.132	0.12	0.016	
2.176	0.132	0.12	0.016	
2.18	0.131	0.119	0.016	
2.184	0.131	0.119	0.016	
2.188	0.13	0.118	0.016	
2.192	0.13	0.118	0.016	
2.196	0.129	0.118	0.016	
2.2	0.129	0.117	0.016	
2.204	0.128	0.117	0.016	
2.208	0.128	0.116	0.015	
2.212	0.127	0.116	0.015	
2.216	0.127	0.115	0.015	
2.22	0.127	0.115	0.015	
2.224	0.126	0.115	0.015	
2.228	0.126	0.114	0.015	
2.232	0.125	0.114	0.015	
2.236	0.125	0.113	0.015	
2.24	0.124	0.113	0.015	
2.244	0.124	0.113	0.015	
2.248	0.123	0.112	0.014	
2.252	0.123	0.112	0.014	
2.256	0.122	0.111	0.014	
2.26	0.122	0.111	0.014	
2.264	0.122	0.111	0.014	
2.268	0.121	0.11	0.014	
2.272	0.121	0.11	0.014	
2.276	0.12	0.109	0.014	
2.28	0.12	0.109	0.014	
2.284	0.119	0.109	0.014	
2.288	0.119	0.108	0.013	
2.292	0.119	0.108	0.013	
2.296	0.118	0.107	0.013	
2.3	0.118	0.107	0.013	
2.304	0.117	0.107	0.013	
2.308	0.117	0.106	0.013	
2.312	0.116	0.106	0.013	
2.316	0.116	0.105	0.013	
2.32	0.116	0.105	0.013	
2.324	0.115	0.105	0.013	
2.328	0.115	0.104	0.013	
2.332	0.114	0.104	0.012	
2.336	0.114	0.104	0.012	
2.34	0.113	0.103	0.012	
2.344	0.113	0.103	0.012	
2.348	0.113	0.102	0.012	
2.352	0.112	0.102	0.012	
2.356	0.112	0.102	0.012	
2.36	0.111	0.101	0.012	
2.364	0.111	0.101	0.012	
2.368	0.111	0.101	0.012	
2.372	0.11	0.1	0.012	
2.376	0.11	0.1	0.012	
2.38	0.109	0.1	0.012	
2.384	0.109	0.099	0.011	
2.388	0.109	0.099	0.011	
2.392	0.108	0.098	0.011	
2.396	0.108	0.098	0.011	
2.4	0.107	0.098	0.011	
2.404	0.107	0.097	0.011	
2.408	0.107	0.097	0.011	
2.412	0.106	0.097	0.011	
2.416	0.106	0.096	0.011	
2.42	0.106	0.096	0.011	
2.424	0.105	0.096	0.011	
2.428	0.105	0.095	0.011	
2.432	0.104	0.095	0.011	
2.436	0.104	0.095	0.01	
2.44	0.104	0.094	0.01	
2.444	0.103	0.094	0.01	
2.448	0.103	0.094	0.01	
2.452	0.103	0.093	0.01	
2.456	0.102	0.093	0.01	
2.46	0.102	0.093	0.01	
2.464	0.101	0.092	0.01	
2.468	0.101	0.092	0.01	
2.472	0.101	0.092	0.01	
2.476	0.1	0.091	0.01	
2.48	0.1	0.091	0.01	
2.484	0.1	0.091	0.01	
2.488	0.099	0.09	0.01	
2.492	0.099	0.09	0.009	
2.496	0.099	0.09	0.009	
2.5	0.098	0.089	0.009	
2.504	0.098	0.089	0.009	
2.508	0.097	0.089	0.009	
2.512	0.097	0.088	0.009	
2.516	0.097	0.088	0.009	
2.52	0.096	0.088	0.009	
2.524	0.096	0.087	0.009	
2.528	0.096	0.087	0.009	
2.532	0.095	0.087	0.009	
2.536	0.095	0.086	0.009	
2.54	0.095	0.086	0.009	
2.544	0.094	0.086	0.009	
2.548	0.094	0.086	0.009	
2.552	0.094	0.085	0.009	
2.556	0.093	0.085	0.008	
2.56	0.093	0.085	0.008	
2.564	0.093	0.084	0.008	
2.568	0.092	0.084	0.008	
2.572	0.092	0.084	0.008	
2.576	0.092	0.083	0.008	
2.58	0.091	0.083	0.008	
2.584	0.091	0.083	0.008	
2.588	0.091	0.083	0.008	
2.592	0.09	0.082	0.008	
2.596	0.09	0.082	0.008	
2.6	0.09	0.082	0.008	
2.604	0.089	0.081	0.008	
2.608	0.089	0.081	0.008	
2.612	0.089	0.081	0.008	
2.616	0.088	0.08	0.008	
2.62	0.088	0.08	0.008	
2.624	0.088	0.08	0.008	
2.628	0.087	0.08	0.007	
2.632	0.087	0.079	0.007	
2.636	0.087	0.079	0.007	
2.64	0.087	0.079	0.007	
2.644	0.086	0.078	0.007	
2.648	0.086	0.078	0.007	
2.652	0.086	0.078	0.007	
2.656	0.085	0.078	0.007	
2.66	0.085	0.077	0.007	
2.664	0.085	0.077	0.007	
2.668	0.084	0.077	0.007	
2.672	0.084	0.077	0.007	
2.676	0.084	0.076	0.007	
2.68	0.083	0.076	0.007	
2.684	0.083	0.076	0.007	
2.688	0.083	0.075	0.007	
2.692	0.083	0.075	0.007	
2.696	0.082	0.075	0.007	
2.7	0.082	0.075	0.007	
2.704	0.082	0.074	0.007	
2.708	0.081	0.074	0.007	
2.712	0.081	0.074	0.006	
2.716	0.081	0.074	0.006	
2.72	0.081	0.073	0.006	
2.724	0.08	0.073	0.006	
2.728	0.08	0.073	0.006	
2.732	0.08	0.073	0.006	
2.736	0.079	0.072	0.006	
2.74	0.079	0.072	0.006	
2.744	0.079	0.072	0.006	
2.748	0.079	0.071	0.006	
2.752	0.078	0.071	0.006	
2.756	0.078	0.071	0.006	
2.76	0.078	0.071	0.006	
2.764	0.077	0.07	0.006	
2.768	0.077	0.07	0.006	
2.772	0.077	0.07	0.006	
2.776	0.077	0.07	0.006	
2.78	0.076	0.069	0.006	
2.784	0.076	0.069	0.006	
2.788	0.076	0.069	0.006	
2.792	0.075	0.069	0.006	
2.796	0.075	0.068	0.006	
2.8	0.075	0.068	0.006	
2.804	0.075	0.068	0.006	
2.808	0.074	0.068	0.005	
2.812	0.074	0.067	0.005	
2.816	0.074	0.067	0.005	
2.82	0.074	0.067	0.005	
2.824	0.073	0.067	0.005	
2.828	0.073	0.067	0.005	
2.832	0.073	0.066	0.005	
2.836	0.073	0.066	0.005	
2.84	0.072	0.066	0.005	
2.844	0.072	0.066	0.005	
2.848	0.072	0.065	0.005	
2.852	0.072	0.065	0.005	
2.856	0.071	0.065	0.005	
2.86	0.071	0.065	0.005	
2.864	0.071	0.064	0.005	
2.868	0.071	0.064	0.005	
2.872	0.07	0.064	0.005	
2.876	0.07	0.064	0.005	
2.88	0.07	0.064	0.005	
2.884	0.07	0.063	0.005	
2.888	0.069	0.063	0.005	
2.892	0.069	0.063	0.005	
2.896	0.069	0.063	0.005	
2.9	0.069	0.062	0.005	
2.904	0.068	0.062	0.005	
2.908	0.068	0.062	0.005	
2.912	0.068	0.062	0.005	
2.916	0.068	0.061	0.005	
2.92	0.067	0.061	0.005	
2.924	0.067	0.061	0.004	
2.928	0.067	0.061	0.004	
2.932	0.067	0.061	0.004	
2.936	0.066	0.06	0.004	
2.94	0.066	0.06	0.004	
2.944	0.066	0.06	0.004	
2.948	0.066	0.06	0.004	
2.952	0.065	0.06	0.004	
2.956	0.065	0.059	0.004	
2.96	0.065	0.059	0.004	
2.964	0.065	0.059	0.004	
2.968	0.064	0.059	0.004	
2.972	0.064	0.058	0.004	
2.976	0.064	0.058	0.004	
2.98	0.064	0.058	0.004	
2.984	0.064	0.058	0.004	
2.988	0.063	0.058	0.004	
2.992	0.063	0.057	0.004	
2.996	0.063	0.057	0.004	
3.0	0.063	0.057	0.004	
3.04	0.06	0.055	0.004	
3.08	0.058	0.053	0.003	
3.12	0.056	0.051	0.003	
3.16	0.054	0.049	0.003	
3.2	0.052	0.048	0.003	
3.24	0.051	0.046	0.003	
3.28	0.049	0.044	0.002	
3.32	0.047	0.043	0.002	
3.36	0.045	0.041	0.002	
3.4	0.044	0.04	0.002	
3.44	0.042	0.039	0.002	
3.48	0.041	0.037	0.002	
3.52	0.039	0.036	0.002	
3.56	0.038	0.035	0.001	
3.6	0.037	0.033	0.001	
3.64	0.035	0.032	0.001	
3.68	0.034	0.031	0.001	
3.72	0.033	0.03	0.001	
3.76	0.032	0.029	0.001	
3.8	0.031	0.028	0.001	
3.84	0.03	0.027	0.001	
3.88	0.029	0.026	0.001	
3.92	0.028	0.025	0.001	
3.96	0.027	0.024	0.001	
4.0	0.026	0.023	0.001	
4.04	0.025	0.023	0.001	
4.08	0.024	0.022	0.001	
4.12	0.023	0.021	0.001	
4.16	0.022	0.02	0.001	
4.2	0.021	0.02	0.0	
4.24	0.021	0.019	0.0	
4.28	0.02	0.018	0.0	
4.32	0.019	0.018	0.0	
4.36	0.019	0.017	0.0	
4.4	0.018	0.016	0.0	
4.44	0.017	0.016	0.0	
4.48	0.017	0.015	0.0	
4.52	0.016	0.015	0.0	
4.56	0.016	0.014	0.0	
4.6	0.015	0.014	0.0	
4.64	0.015	0.013	0.0	
4.68	0.014	0.013	0.0	
4.72	0.014	0.012	0.0	
4.76	0.013	0.012	0.0	
4.8	0.013	0.011	0.0	
4.84	0.012	0.011	0.0	
4.88	0.012	0.011	0.0	
4.92	0.011	0.01	0.0	
4.96	0.011	0.01	0.0	
5.0	0.011	0.01	0.0	
5.04	0.01	0.009	0.0	
5.08	0.01	0.009	0.0	
5.12	0.009	0.009	0.0	
5.16	0.009	0.008	0.0	
5.2	0.009	0.008	0.0	
5.24	0.009	0.008	0.0	
5.28	0.008	0.007	0.0	
5.32	0.008	0.007	0.0	
5.36	0.008	0.007	0.0	
5.4	0.007	0.007	0.0	
5.44	0.007	0.006	0.0	
5.48	0.007	0.006	0.0	
5.52	0.007	0.006	0.0	
5.56	0.006	0.006	0.0	
5.6	0.006	0.006	0.0	
5.64	0.006	0.005	0.0	
5.68	0.006	0.005	0.0	
5.72	0.006	0.005	0.0	
5.76	0.005	0.005	0.0	
5.8	0.005	0.005	0.0	
5.84	0.005	0.005	0.0	
5.88	0.005	0.004	0.0	
5.92	0.005	0.004	0.0	
5.96	0.004	0.004	0.0	
6.0	0.004	0.004	0.0	
6.04	0.004	0.004	0.0	
6.08	0.004	0.004	0.0	
6.12	0.004	0.004	0.0	
6.16	0.004	0.003	0.0	
6.2	0.004	0.003	0.0	
6.24	0.003	0.003	0.0	
6.28	0.003	0.003	0.0	
6.32	0.003	0.003	0.0	
6.36	0.003	0.003	0.0	
6.4	0.003	0.003	0.0	
6.44	0.003	0.003	0.0	
6.48	0.003	0.003	0.0	
6.52	0.003	0.002	0.0	
6.56	0.003	0.002	0.0	
6.6	0.003	0.002	0.0	
6.64	0.002	0.002	0.0	
6.68	0.002	0.002	0.0	
6.72	0.002	0.002	0.0	
6.76	0.002	0.002	0.0	
6.8	0.002	0.002	0.0	
6.84	0.002	0.002	0.0	
6.88	0.002	0.002	0.0	
6.92	0.002	0.002	0.0	
6.96	0.002	0.002	0.0	
7.0	0.002	0.002	0.0	
7.04	0.002	0.002	0.0	
7.08	0.002	0.002	0.0	
7.12	0.002	0.001	0.0	
7.16	0.002	0.001	0.0	
7.2	0.001	0.001	0.0	
7.24	0.001	0.001	0.0	
7.28	0.001	0.001	0.0	
7.32	0.001	0.001	0.0	
7.36	0.001	0.001	0.0	
7.4	0.001	0.001	0.0	
7.44	0.001	0.001	0.0	
7.48	0.001	0.001	0.0	
7.52	0.001	0.001	0.0	
7.56	0.001	0.001	0.0	
7.6	0.001	0.001	0.0	
7.64	0.001	0.001	0.0	
7.68	0.001	0.001	0.0	
7.72	0.001	0.001	0.0	
7.76	0.001	0.001	0.0	
7.8	0.001	0.001	0.0	
7.84	0.001	0.001	0.0	
7.88	0.001	0.001	0.0	
7.92	0.001	0.001	0.0	
7.96	0.001	0.001	0.0	
8.0	0.001	0.001	0.0	
8.04	0.001	0.001	0.0	
8.08	0.001	0.001	0.0	
8.12	0.001	0.001	0.0	
8.16	0.001	0.001	0.0	
8.2	0.001	0.001	0.0	
8.24	0.001	0.001	0.0	
8.28	0.001	0.001	0.0	
8.32	0.001	0.0	0.0	
8.36	0.001	0.0	0.0	
8.4	0.001	0.0	0.0	
8.44	0.0	0.0	0.0	
8.48	0.0	0.0	0.0	
8.52	0.0	0.0	0.0	
8.56	0.0	0.0	0.0	
8.6	0.0	0.0	0.0	
8.64	0.0	0.0	0.0	
8.68	0.0	0.0	0.0	
8.72	0.0	0.0	0.0	
8.76	0.0	0.0	0.0	
8.8	0.0	0.0	0.0	
8.84	0.0	0.0	0.0	
8.88	0.0	0.0	0.0	
8.92	0.0	0.0	0.0	
8.96	0.0	0.0	0.0	
9.0	0.0	0.0	0.0	
9.04	0.0	0.0	0.0	
9.08	0.0	0.0	0.0	
9.12	0.0	0.0	0.0	
9.16	0.0	0.0	0.0	
9.2	0.0	0.0	0.0	
9.24	0.0	0.0	0.0	
9.28	0.0	0.0	0.0	
9.32	0.0	0.0	0.0	
9.36	0.0	0.0	0.0	
9.4	0.0	0.0	0.0	
9.44	0.0	0.0	0.0	
9.48	0.0	0.0	0.0	
9.52	0.0	0.0	0.0	
9.56	0.0	0.0	0.0	
9.6	0.0	0.0	0.0	
9.64	0.0	0.0	0.0	
9.68	0.0	0.0	0.0	
9.72	0.0	0.0	0.0	
9.76	0.0	0.0	0.0	
9.8	0.0	0.0	0.0	
9.84	0.0	0.0	0.0	
9.88	0.0	0.0	0.0	
9.92	0.0	0.0	0.0	
9.96	0.0	0.0	0.0	
